Date,Open,High,Low,Close,Adj Close,Volume
2012-01-03,27.350000,27.680000,27.350000,27.639999,27.639999,5940500
2012-01-04,27.610001,27.900000,27.610001,27.850000,27.850000,2439000
2012-01-05,27.709999,27.719999,27.430000,27.469999,27.469999,1212500
2012-01-06,27.590000,27.690001,27.379999,27.590000,27.590000,17707200
2012-01-09,27.620001,27.709999,27.469999,27.620001,27.620001,2432600
2012-01-10,27.879999,27.920000,27.780001,27.820000,27.820000,2120000
2012-01-11,27.770000,27.799999,27.559999,27.740000,27.740000,2079500
2012-01-12,27.660000,27.920000,26.690001,27.350000,27.350000,1740600
2012-01-13,27.250000,27.350000,27.120001,27.290001,27.290001,3156800
2012-01-17,27.459999,27.580000,27.389999,27.480000,27.480000,1910500
2012-01-18,27.490000,27.549999,27.350000,27.490000,27.490000,1544100
2012-01-19,27.580000,27.610001,27.410000,27.610001,27.610001,2834400
2012-01-20,27.430000,27.459999,27.240000,27.410000,27.410000,1907200
2012-01-23,27.480000,27.750000,27.480000,27.730000,27.730000,1767900
2012-01-24,27.530001,27.780001,27.530001,27.780001,27.780001,2428100
2012-01-25,27.670000,28.030001,27.590000,28.010000,28.010000,1913200
2012-01-26,28.209999,28.260000,28.030001,28.090000,28.090000,2136400
2012-01-27,27.959999,28.190001,27.959999,28.190001,28.190001,1828700
2012-01-30,28.000000,28.059999,27.820000,27.900000,27.900000,3085600
2012-01-31,28.049999,28.190001,27.740000,27.830000,27.830000,1912600
2012-02-01,27.940001,28.059999,27.870001,27.920000,27.920000,1570400
2012-02-02,27.889999,28.020000,27.740000,27.990000,27.990000,2079200
2012-02-03,28.180000,28.330000,28.040001,28.320000,28.320000,1774800
2012-02-06,28.309999,28.500000,28.240000,28.459999,28.459999,1680100
2012-02-07,28.420000,28.610001,28.340000,28.440001,28.440001,2370400
2012-02-08,28.580000,28.650000,28.360001,28.570000,28.570000,1152800
2012-02-09,28.730000,28.809999,28.629999,28.719999,28.719999,1484900
2012-02-10,28.420000,28.500000,28.299999,28.450001,28.450001,1870100
2012-02-13,28.580000,28.670000,28.400000,28.520000,28.520000,2124700
2012-02-14,28.510000,28.580000,28.420000,28.510000,28.510000,1376300
2012-02-15,28.610001,28.660000,28.490000,28.610001,28.610001,1929400
2012-02-16,28.520000,28.760000,28.480000,28.740000,28.740000,1657600
2012-02-17,28.760000,28.770000,28.600000,28.690001,28.690001,1572500
2012-02-21,28.959999,29.240000,28.950001,29.139999,29.139999,2446900
2012-02-22,29.160000,29.440001,29.120001,29.410000,29.410000,3163600
2012-02-23,29.400000,29.530001,29.260000,29.500000,29.500000,1544000
2012-02-24,29.480000,29.740000,29.469999,29.680000,29.680000,4989900
2012-02-27,29.590000,29.709999,29.440001,29.440001,29.440001,4821900
2012-02-28,29.559999,29.629999,29.350000,29.430000,29.430000,2902200
2012-02-29,29.500000,29.580000,28.969999,29.320000,29.320000,4067900
2012-03-01,29.400000,29.930000,29.280001,29.780001,29.780001,5275000
2012-03-02,29.570000,29.570000,29.309999,29.480000,29.480000,2213700
2012-03-05,29.360001,29.430000,29.200001,29.340000,29.340000,1368900
2012-03-06,28.940001,28.980000,28.799999,28.860001,28.860001,2082500
2012-03-07,28.850000,29.049999,28.750000,28.990000,28.990000,1476900
2012-03-08,29.129999,29.280001,29.100000,29.230000,29.230000,2202300
2012-03-09,29.139999,29.430000,29.090000,29.309999,29.309999,1409900
2012-03-12,29.070000,29.290001,29.030001,29.270000,29.270000,717100
2012-03-13,29.219999,29.480000,29.190001,29.400000,29.400000,1347900
2012-03-14,29.309999,29.440001,29.139999,29.200001,29.200001,1200800
2012-03-15,29.200001,29.330000,29.000000,29.219999,29.219999,1339600
2012-03-16,29.340000,29.580000,29.309999,29.580000,29.580000,1433400
2012-03-19,29.559999,29.600000,29.450001,29.530001,29.530001,1386400
2012-03-20,29.260000,29.260000,29.070000,29.170000,29.170000,1577200
2012-03-21,29.170000,29.260000,29.080000,29.100000,29.100000,951700
2012-03-22,28.799999,28.889999,28.730000,28.870001,28.870001,1641500
2012-03-23,28.969999,29.389999,28.969999,29.150000,29.150000,1664200
2012-03-26,29.309999,29.370001,29.209999,29.280001,29.280001,1555600
2012-03-27,29.290001,29.350000,29.129999,29.160000,29.160000,1251400
2012-03-28,28.930000,28.969999,28.780001,28.879999,28.879999,6060500
2012-03-29,28.820000,28.879999,28.350000,28.480000,28.480000,4891200
2012-03-30,28.690001,28.889999,28.610001,28.799999,28.799999,2630400
2012-04-02,28.600000,29.209999,28.590000,29.170000,29.170000,1752700
2012-04-03,29.200001,29.209999,28.950001,29.040001,29.040001,1325100
2012-04-04,28.790001,28.850000,28.520000,28.590000,28.590000,2054900
2012-04-05,28.510000,28.719999,28.480000,28.700001,28.700001,897000
2012-04-09,28.459999,28.620001,28.350000,28.570000,28.570000,1578100
2012-04-10,28.530001,28.559999,28.150000,28.190001,28.190001,1543900
2012-04-11,28.230000,28.379999,28.160000,28.260000,28.260000,2472600
2012-04-12,28.330000,28.639999,28.309999,28.629999,28.629999,908600
2012-04-13,28.500000,28.520000,28.299999,28.340000,28.340000,2228100
2012-04-16,28.230000,28.240000,27.980000,28.059999,28.059999,1860900
2012-04-17,28.180000,28.219999,28.100000,28.190001,28.190001,1754300
2012-04-18,28.030001,28.049999,27.840000,27.920000,27.920000,1801500
2012-04-19,28.040001,28.110001,27.870001,27.930000,27.930000,1837800
2012-04-20,28.120001,28.200001,27.990000,28.040001,28.040001,1648000
2012-04-23,27.780001,28.010000,27.730000,27.990000,27.990000,1026900
2012-04-24,28.090000,28.120001,27.940001,27.990000,27.990000,736800
2012-04-25,28.129999,28.170000,27.920000,28.150000,28.150000,886200
2012-04-26,28.200001,28.340000,28.200001,28.209999,28.209999,851600
2012-04-27,28.260000,28.330000,28.200001,28.299999,28.299999,814400
2012-04-30,28.230000,28.440001,28.190001,28.410000,28.410000,1377500
2012-05-01,28.320000,28.500000,28.290001,28.410000,28.410000,1495500
2012-05-02,28.280001,28.320000,28.010000,28.040001,28.040001,1311300
2012-05-03,27.920000,27.980000,27.680000,27.730000,27.730000,1624000
2012-05-04,27.450001,27.459999,27.040001,27.240000,27.240000,1968400
2012-05-07,26.990000,27.209999,26.930000,27.180000,27.180000,5352400
2012-05-08,27.010000,27.080000,26.719999,27.080000,27.080000,3472300
2012-05-09,26.760000,26.940001,26.700001,26.870001,26.870001,3238300
2012-05-10,26.950001,26.990000,26.860001,26.879999,26.879999,1631300
2012-05-11,26.719999,26.910000,26.670000,26.680000,26.680000,1518900
2012-05-14,26.410000,26.480000,26.309999,26.330000,26.330000,5751700
2012-05-15,26.480000,26.590000,26.370001,26.379999,26.379999,8431800
2012-05-16,26.360001,26.559999,26.309999,26.350000,26.350000,1589200
2012-05-17,26.430000,26.480000,26.270000,26.290001,26.290001,1222100
2012-05-18,26.370001,26.500000,26.250000,26.270000,26.270000,2698600
2012-05-21,26.379999,26.620001,26.370001,26.620001,26.620001,851900
2012-05-22,26.450001,26.549999,26.170000,26.240000,26.240000,1387300
2012-05-23,26.020000,26.020000,25.750000,25.950001,25.950001,2929100
2012-05-24,26.100000,26.100000,25.830000,25.959999,25.959999,6060000
2012-05-25,26.000000,26.080000,25.990000,26.049999,26.049999,1125700
2012-05-29,26.180000,26.250000,25.870001,25.940001,25.940001,1472900
2012-05-30,25.600000,25.600000,25.400000,25.459999,25.459999,1629900
2012-05-31,25.469999,25.469999,25.180000,25.240000,25.240000,2427200
2012-06-01,24.889999,24.959999,24.590000,24.719999,24.719999,3989700
2012-06-04,24.700001,24.889999,24.629999,24.860001,24.860001,4474300
2012-06-05,24.790001,24.889999,24.730000,24.770000,24.770000,2129000
2012-06-06,25.080000,25.320000,25.049999,25.230000,25.230000,4778400
2012-06-07,25.540001,25.549999,25.040001,25.059999,25.059999,2158300
2012-06-08,24.860001,25.139999,24.780001,25.139999,25.139999,1569600
2012-06-11,25.150000,25.170000,24.650000,24.680000,24.680000,4247700
2012-06-12,24.889999,24.900000,24.730000,24.799999,24.799999,2263800
2012-06-13,24.650000,24.850000,24.559999,24.610001,24.610001,1510800
2012-06-14,24.660000,24.950001,24.590000,24.900000,24.900000,2601200
2012-06-15,24.860001,24.980000,24.820000,24.860001,24.860001,1627200
2012-06-18,24.680000,24.950001,24.629999,24.879999,24.879999,1065800
2012-06-19,25.090000,25.160000,25.030001,25.090000,25.090000,1738200
2012-06-20,24.990000,24.990000,24.660000,24.680000,24.680000,6226300
2012-06-21,24.590000,24.610001,24.120001,24.150000,24.150000,1815100
2012-06-22,24.290001,24.410000,24.260000,24.389999,24.389999,2906300
2012-06-25,24.400000,24.639999,24.340000,24.639999,24.639999,1377600
2012-06-26,24.700001,24.850000,24.570000,24.809999,24.809999,1480400
2012-06-27,24.969999,25.080000,24.870001,24.950001,24.950001,1140500
2012-06-28,24.830000,24.889999,24.500000,24.680000,24.680000,997600
2012-06-29,25.309999,25.870001,25.230000,25.750000,25.750000,12446600
2012-07-02,25.660000,25.709999,25.420000,25.700001,25.700001,3837000
2012-07-03,26.250000,26.420000,26.219999,26.420000,26.420000,1382200
2012-07-05,26.370001,26.559999,26.320000,26.520000,26.520000,3286300
2012-07-06,26.129999,26.150000,25.900000,25.910000,25.910000,1221900
2012-07-09,26.190001,26.520000,26.180000,26.370001,26.370001,1016300
2012-07-10,26.290001,26.299999,25.990000,26.030001,26.030001,1004700
2012-07-11,26.260000,26.370001,26.080000,26.320000,26.320000,1200700
2012-07-12,26.090000,26.440001,26.000000,26.379999,26.379999,868400
2012-07-13,26.530001,26.740000,26.530001,26.700001,26.700001,970500
2012-07-16,26.900000,27.090000,26.799999,27.030001,27.030001,1104100
2012-07-17,27.129999,27.170000,26.870001,27.059999,27.059999,3381500
2012-07-18,27.049999,27.330000,27.020000,27.299999,27.299999,1446800
2012-07-19,27.600000,27.770000,27.549999,27.629999,27.629999,2532100
2012-07-20,27.559999,27.650000,27.459999,27.629999,27.629999,2023500
2012-07-23,26.990000,27.209999,26.900000,27.049999,27.049999,1534200
2012-07-24,26.950001,26.990000,26.660000,26.889999,26.889999,3086000
2012-07-25,27.040001,27.200001,26.830000,27.090000,27.090000,1176600
2012-07-26,27.320000,27.360001,27.049999,27.139999,27.139999,2906700
2012-07-27,27.290001,27.440001,27.230000,27.420000,27.420000,925700
2012-07-30,27.530001,27.650000,27.530001,27.580000,27.580000,5830200
2012-07-31,27.600000,27.610001,27.250000,27.250000,27.250000,2325400
2012-08-01,27.330000,27.379999,27.100000,27.290001,27.290001,1254100
2012-08-02,27.020000,27.180000,26.980000,27.059999,27.059999,1708200
2012-08-03,27.360001,27.660000,27.360001,27.520000,27.520000,2597400
2012-08-06,27.450001,27.719999,27.420000,27.680000,27.680000,2365900
2012-08-07,27.799999,27.990000,27.780001,27.889999,27.889999,1255400
2012-08-08,27.920000,28.059999,27.870001,27.969999,27.969999,2025200
2012-08-09,28.030001,28.270000,28.030001,28.200001,28.200001,1634500
2012-08-10,27.969999,28.110001,27.920000,28.049999,28.049999,2352200
2012-08-13,27.980000,28.030001,27.790001,27.830000,27.830000,1402400
2012-08-14,27.910000,27.950001,27.790001,27.860001,27.860001,1152200
2012-08-15,27.889999,28.160000,27.879999,28.100000,28.100000,1643100
2012-08-16,28.160000,28.320000,28.070000,28.209999,28.209999,1953700
2012-08-17,28.160000,28.290001,28.110001,28.250000,28.250000,1078300
2012-08-20,28.280001,28.389999,28.120001,28.379999,28.379999,1535600
2012-08-21,28.670000,28.790001,28.620001,28.639999,28.639999,1497500
2012-08-22,28.650000,28.820000,28.610001,28.790001,28.790001,1709700
2012-08-23,28.920000,28.959999,28.580000,28.650000,28.650000,1348000
2012-08-24,28.750000,28.770000,28.469999,28.520000,28.520000,3640400
2012-08-27,28.480000,28.500000,28.350000,28.389999,28.389999,1914000
2012-08-28,28.389999,28.450001,28.299999,28.410000,28.410000,1247600
2012-08-29,28.440001,28.469999,28.340000,28.459999,28.459999,967400
2012-08-30,28.520000,28.530001,28.340000,28.490000,28.490000,1634300
2012-08-31,28.610001,28.840000,28.430000,28.790001,28.790001,8719400
2012-09-04,29.020000,29.070000,28.740000,28.799999,28.799999,7801700
2012-09-05,28.780001,28.790001,28.590000,28.660000,28.660000,3261000
2012-09-06,28.760000,28.940001,28.639999,28.650000,28.650000,3166500
2012-09-07,28.790001,29.020000,28.660000,28.969999,28.969999,2027200
2012-09-10,29.000000,29.139999,28.959999,29.010000,29.010000,2223700
2012-09-11,29.129999,29.150000,29.040001,29.070000,29.070000,1769800
2012-09-12,29.129999,29.230000,29.070000,29.219999,29.219999,1264800
2012-09-13,29.360001,29.459999,29.059999,29.420000,29.420000,2082500
2012-09-14,29.709999,29.860001,29.670000,29.730000,29.730000,3026800
2012-09-17,29.540001,29.559999,28.750000,28.910000,28.910000,3610500
2012-09-18,28.959999,29.030001,28.639999,28.700001,28.700001,3701500
2012-09-19,28.600000,28.620001,28.190001,28.280001,28.280001,4359800
2012-09-20,28.260000,28.440001,28.200001,28.440001,28.440001,1676500
2012-09-21,28.570000,28.670000,28.510000,28.629999,28.629999,2142400
2012-09-24,28.299999,28.360001,28.200001,28.330000,28.330000,1786700
2012-09-25,28.540001,28.590000,28.330000,28.360001,28.360001,1354400
2012-09-26,28.180000,28.200001,27.950001,28.160000,28.160000,1892400
2012-09-27,28.389999,28.540001,28.309999,28.510000,28.510000,1759300
2012-09-28,28.610001,28.780001,28.549999,28.680000,28.680000,5470600
2012-10-01,28.850000,28.950001,28.590000,28.719999,28.719999,6122000
2012-10-02,28.680000,28.700001,28.559999,28.570000,28.570000,1393200
2012-10-03,28.299999,28.700001,28.059999,28.080000,28.080000,2234000
2012-10-04,28.410000,28.740000,28.320000,28.690001,28.690001,1251600
2012-10-05,28.650000,28.650000,28.389999,28.540001,28.540001,1006500
2012-10-08,28.420000,28.510000,28.370001,28.459999,28.459999,1075800
2012-10-09,28.559999,28.780001,28.549999,28.670000,28.670000,1360400
2012-10-10,28.670000,28.820000,28.559999,28.620001,28.620001,2341000
2012-10-11,28.860001,29.000000,28.760000,28.950001,28.950001,975700
2012-10-12,28.709999,28.760000,28.469999,28.549999,28.549999,1238300
2012-10-15,28.370001,28.430000,28.180000,28.410000,28.410000,1350200
2012-10-16,28.420000,28.490000,28.340000,28.430000,28.430000,1157700
2012-10-17,28.459999,28.510000,28.330000,28.440001,28.440001,1258200
2012-10-18,28.250000,28.480000,28.209999,28.430000,28.430000,1930500
2012-10-19,28.480000,28.500000,28.000000,28.000000,28.000000,1623500
2012-10-22,28.090000,28.129999,27.799999,27.870001,27.870001,1301000
2012-10-23,27.530001,27.549999,27.340000,27.530001,27.530001,1933400
2012-10-24,27.520000,27.570000,27.320000,27.450001,27.450001,1404000
2012-10-25,27.620001,27.650000,27.379999,27.520000,27.520000,1268700
2012-10-26,27.520000,27.629999,27.459999,27.580000,27.580000,1361500
2012-10-31,27.620001,27.799999,27.510000,27.559999,27.559999,6853900
2012-11-01,27.660000,27.750000,27.610001,27.610001,27.610001,3706800
2012-11-02,27.580000,27.600000,27.120001,27.139999,27.139999,1252200
2012-11-05,27.129999,27.389999,27.080000,27.370001,27.370001,2096800
2012-11-06,27.549999,27.930000,27.500000,27.860001,27.860001,1425000
2012-11-07,27.610001,27.639999,27.280001,27.340000,27.340000,1464500
2012-11-08,27.370001,27.459999,27.250000,27.379999,27.379999,1124700
2012-11-09,27.330000,27.660000,27.309999,27.600000,27.600000,2791200
2012-11-12,27.590000,27.690001,27.430000,27.469999,27.469999,1251000
2012-11-13,27.320000,27.530001,27.309999,27.420000,27.420000,1524500
2012-11-14,27.510000,27.719999,27.480000,27.500000,27.500000,1166600
2012-11-15,27.629999,27.670000,27.330000,27.389999,27.389999,1668400
2012-11-16,27.450001,27.530001,27.299999,27.510000,27.510000,1450900
2012-11-19,27.850000,28.080000,27.850000,28.030001,28.030001,2080400
2012-11-20,27.910000,27.990000,27.670000,27.840000,27.840000,1148000
2012-11-21,27.889999,27.959999,27.740000,27.959999,27.959999,1259400
2012-11-23,27.879999,28.120001,27.879999,28.059999,28.059999,828700
2012-11-26,28.000000,28.040001,27.940001,28.020000,28.020000,2169400
2012-11-27,28.010000,28.080000,27.879999,27.980000,27.980000,1531700
2012-11-28,27.620001,27.910000,27.620001,27.889999,27.889999,1733600
2012-11-29,28.120001,28.170000,28.010000,28.080000,28.080000,1092300
2012-11-30,28.100000,28.190001,28.040001,28.100000,28.100000,2626000
2012-12-03,28.360001,28.379999,28.129999,28.170000,28.170000,2527400
2012-12-04,27.940001,28.000000,27.860001,27.920000,27.920000,1844900
2012-12-05,27.940001,27.990000,27.770000,27.889999,27.889999,1091700
2012-12-06,27.709999,27.760000,27.570000,27.639999,27.639999,1621900
2012-12-07,27.650000,27.700001,27.520000,27.610001,27.610001,2812600
2012-12-10,27.629999,27.650000,27.490000,27.549999,27.549999,1194300
2012-12-11,27.540001,27.559999,27.410000,27.500000,27.500000,1943600
2012-12-12,27.680000,27.750000,27.520000,27.629999,27.629999,2672400
2012-12-13,27.440001,27.490000,27.299999,27.379999,27.379999,1420800
2012-12-14,27.430000,27.590000,27.420000,27.549999,27.549999,1641900
2012-12-17,27.530001,27.600000,27.500000,27.530001,27.530001,1235700
2012-12-18,27.540001,27.670000,27.510000,27.600000,27.600000,1583400
2012-12-19,27.639999,27.750000,27.600000,27.700001,27.700001,1644600
2012-12-20,27.510000,27.650000,27.500000,27.570000,27.570000,1829300
2012-12-21,27.480000,27.559999,27.430000,27.520000,27.520000,1932700
2012-12-24,27.420000,27.450001,27.350000,27.430000,27.430000,1091900
2012-12-26,27.709999,27.809999,27.620001,27.709999,27.709999,1077900
2012-12-27,27.670000,27.750000,27.590000,27.709999,27.709999,1973500
2012-12-28,27.670000,27.719999,27.549999,27.629999,27.629999,1542300
2012-12-31,27.530001,27.809999,27.510000,27.780001,27.780001,4334900
2013-01-02,28.110001,28.120001,27.850000,27.879999,27.879999,3008900
2013-01-03,27.750000,27.790001,27.629999,27.650000,27.650000,2478800
2013-01-04,27.530001,27.590000,27.350000,27.530001,27.530001,3217000
2013-01-07,27.450001,27.590000,27.420000,27.580000,27.580000,1727800
2013-01-08,27.639999,27.660000,27.530001,27.650000,27.650000,1681900
2013-01-09,27.650000,27.670000,27.500000,27.610001,27.610001,1681200
2013-01-10,27.799999,27.820000,27.709999,27.709999,27.709999,1740600
2013-01-11,27.570000,27.620001,27.410000,27.590000,27.590000,1492200
2013-01-14,27.700001,27.780001,27.559999,27.770000,27.770000,1996600
2013-01-15,27.760000,27.760000,27.610001,27.650000,27.650000,3970300
2013-01-16,27.629999,27.719999,27.580000,27.680000,27.680000,3361300
2013-01-17,27.780001,27.889999,27.740000,27.799999,27.799999,1419100
2013-01-18,27.879999,28.020000,27.780001,27.980000,27.980000,1631600
2013-01-22,28.090000,28.139999,27.980000,28.059999,28.059999,2017900
2013-01-23,28.040001,28.139999,28.020000,28.090000,28.090000,1704100
2013-01-24,28.000000,28.150000,28.000000,28.070000,28.070000,1555000
2013-01-25,28.049999,28.090000,27.940001,28.010000,28.010000,1470300
2013-01-28,28.049999,28.059999,27.879999,28.000000,28.000000,1456900
2013-01-29,28.049999,28.200001,28.010000,28.160000,28.160000,1536500
2013-01-30,28.340000,28.490000,28.320000,28.480000,28.480000,2555200
2013-01-31,28.360001,28.500000,28.309999,28.469999,28.469999,2636100
2013-02-01,28.559999,28.730000,28.530001,28.580000,28.580000,2975900
2013-02-04,28.500000,28.620001,28.430000,28.480000,28.480000,1753700
2013-02-05,28.610001,28.629999,28.540001,28.590000,28.590000,1421600
2013-02-06,28.420000,28.580000,28.389999,28.549999,28.549999,2511400
2013-02-07,28.530001,28.570000,28.370001,28.440001,28.440001,2184600
2013-02-08,28.610001,28.680000,28.520000,28.549999,28.549999,1562500
2013-02-11,28.370001,28.480000,28.320000,28.450001,28.450001,1981400
2013-02-12,28.480000,28.500000,28.400000,28.500000,28.500000,2520800
2013-02-13,28.530001,28.570000,28.459999,28.510000,28.510000,1532000
2013-02-14,28.469999,28.520000,28.389999,28.469999,28.469999,1387900
2013-02-15,28.260000,28.350000,28.170000,28.350000,28.350000,2421000
2013-02-19,28.219999,28.260000,28.100000,28.240000,28.240000,2252600
2013-02-20,28.200001,28.209999,27.850000,27.920000,27.920000,3037500
2013-02-21,27.629999,27.700001,27.549999,27.600000,27.600000,2358300
2013-02-22,27.629999,27.660000,27.530001,27.600000,27.600000,1897900
2013-02-25,27.750000,27.780001,27.469999,27.469999,27.469999,3079200
2013-02-26,27.500000,27.549999,27.379999,27.420000,27.420000,2745100
2013-02-27,27.389999,27.469999,27.209999,27.250000,27.250000,2564300
2013-02-28,27.219999,27.309999,27.100000,27.129999,27.129999,5327700
2013-03-01,26.879999,26.969999,26.820000,26.940001,26.940001,2641200
2013-03-04,26.900000,26.930000,26.730000,26.840000,26.840000,2031000
2013-03-05,26.990000,27.100000,26.940001,27.090000,27.090000,3225400
2013-03-06,26.990000,27.010000,26.850000,26.940001,26.940001,1621800
2013-03-07,26.980000,27.120001,26.969999,27.120001,27.120001,1534600
2013-03-08,27.040001,27.219999,27.020000,27.200001,27.200001,2571900
2013-03-11,27.150000,27.260000,27.059999,27.219999,27.219999,6676400
2013-03-12,27.389999,27.430000,27.209999,27.280001,27.280001,3456200
2013-03-13,27.350000,27.370001,27.080000,27.139999,27.139999,3080000
2013-03-14,27.200001,27.340000,27.170000,27.340000,27.340000,1860500
2013-03-15,27.420000,27.459999,27.360001,27.400000,27.400000,1869300
2013-03-18,27.129999,27.299999,27.100000,27.240000,27.240000,1485500
2013-03-19,27.219999,27.290001,27.010000,27.040001,27.040001,1687100
2013-03-20,27.170000,27.290001,27.049999,27.230000,27.230000,2177200
2013-03-21,27.190001,27.260000,27.049999,27.110001,27.110001,1375800
2013-03-22,27.160000,27.219999,27.049999,27.160000,27.160000,1133900
2013-03-25,27.280001,27.379999,27.129999,27.180000,27.180000,2103000
2013-03-26,27.309999,27.430000,27.240000,27.430000,27.430000,1416700
2013-03-27,27.389999,27.580000,27.350000,27.570000,27.570000,2456700
2013-03-28,27.430000,27.500000,27.230000,27.309999,27.309999,1560200
2013-04-01,27.190001,27.400000,27.160000,27.309999,27.309999,1980700
2013-04-02,27.219999,27.250000,27.120001,27.180000,27.180000,3237700
2013-04-03,27.150000,27.190001,26.680000,26.719999,26.719999,2111900
2013-04-04,26.580000,26.750000,26.520000,26.690001,26.690001,1327100
2013-04-05,26.620001,26.670000,26.520000,26.670000,26.670000,1205300
2013-04-08,26.750000,26.760000,26.590000,26.750000,26.750000,1179300
2013-04-09,26.740000,26.969999,26.670000,26.920000,26.920000,1302800
2013-04-10,26.920000,26.959999,26.809999,26.860001,26.860001,1260800
2013-04-11,26.799999,26.870001,26.670000,26.750000,26.750000,1748800
2013-04-12,26.500000,26.600000,26.280001,26.420000,26.420000,2923900
2013-04-15,25.990000,26.000000,25.620001,25.629999,25.629999,3652600
2013-04-16,25.790001,25.910000,25.639999,25.900000,25.900000,4928900
2013-04-17,25.680000,25.709999,25.490000,25.520000,25.520000,1478900
2013-04-18,25.620001,25.809999,25.490000,25.790001,25.790001,2616600
2013-04-19,25.730000,25.790001,25.660000,25.730000,25.730000,1957900
2013-04-22,25.760000,25.830000,25.580000,25.809999,25.809999,1996500
2013-04-23,25.660000,25.740000,25.590000,25.650000,25.650000,2551900
2013-04-24,25.820000,25.950001,25.770000,25.930000,25.930000,1714400
2013-04-25,25.990000,26.320000,25.969999,26.270000,26.270000,2094300
2013-04-26,26.180000,26.219999,25.980000,26.120001,26.120001,2222900
2013-04-29,26.240000,26.510000,26.209999,26.469999,26.469999,1131000
2013-04-30,26.459999,26.459999,26.240000,26.270000,26.270000,1900600
2013-05-01,25.809999,25.900000,25.700001,25.799999,25.799999,1693900
2013-05-02,25.910000,26.180000,25.799999,26.129999,26.129999,1538800
2013-05-03,26.370001,26.520000,26.309999,26.420000,26.420000,1188300
2013-05-06,26.350000,26.510000,26.270000,26.450001,26.450001,7015100
2013-05-07,26.410000,26.480000,26.280001,26.360001,26.360001,1380300
2013-05-08,26.440001,26.540001,26.370001,26.480000,26.480000,1423400
2013-05-09,26.389999,26.580000,26.370001,26.469999,26.469999,1137900
2013-05-10,26.200001,26.370001,26.020000,26.350000,26.350000,1402400
2013-05-13,26.230000,26.350000,26.170000,26.230000,26.230000,1380000
2013-05-14,26.129999,26.230000,26.090000,26.139999,26.139999,2765800
2013-05-15,25.940001,26.100000,25.770000,26.080000,26.080000,3652200
2013-05-16,26.030001,26.160000,25.980000,26.049999,26.049999,1532000
2013-05-17,26.200001,26.240000,26.070000,26.180000,26.180000,1141500
2013-05-20,26.160000,26.379999,26.160000,26.350000,26.350000,1530400
2013-05-21,26.280001,26.330000,26.139999,26.200001,26.200001,1199900
2013-05-22,26.200001,26.360001,26.030001,26.080000,26.080000,1302700
2013-05-23,25.870001,26.200001,25.840000,26.200001,26.200001,2251800
2013-05-24,26.030001,26.150000,25.969999,26.100000,26.100000,1968100
2013-05-28,26.450001,26.459999,26.320000,26.340000,26.340000,2486900
2013-05-29,26.350000,26.360001,26.110001,26.170000,26.170000,1150400
2013-05-30,26.049999,26.240000,26.020000,26.170000,26.170000,1874300
2013-05-31,26.020000,26.090000,25.860001,25.860001,25.860001,5156100
2013-06-03,26.120001,26.260000,26.080000,26.180000,26.180000,2813800
2013-06-04,26.080000,26.299999,26.000000,26.280001,26.280001,1526100
2013-06-05,26.299999,26.379999,26.150000,26.160000,26.160000,2641500
2013-06-06,26.139999,26.270000,26.139999,26.260000,26.260000,3320900
2013-06-07,26.110001,26.400000,26.080000,26.320000,26.320000,1316900
2013-06-10,26.219999,26.250000,26.160000,26.219999,26.219999,1086400
2013-06-11,25.910000,26.030001,25.889999,25.990000,25.990000,1148700
2013-06-12,26.110001,26.139999,26.010000,26.020000,26.020000,3855200
2013-06-13,25.990000,26.219999,25.959999,26.190001,26.190001,2189600
2013-06-14,26.320000,26.360001,26.260000,26.299999,26.299999,1542800
2013-06-17,26.309999,26.400000,26.299999,26.360001,26.360001,2642800
2013-06-18,26.360001,26.430000,26.280001,26.410000,26.410000,2653200
2013-06-19,26.459999,26.600000,26.430000,26.450001,26.450001,1080200
2013-06-20,25.900000,25.920000,25.559999,25.590000,25.590000,3419500
2013-06-21,25.620001,25.650000,25.350000,25.430000,25.430000,3324300
2013-06-24,25.200001,25.420000,25.160000,25.320000,25.320000,2212800
2013-06-25,25.490000,25.490000,25.309999,25.340000,25.340000,3226100
2013-06-26,25.330000,25.350000,25.139999,25.270000,25.270000,3087100
2013-06-27,25.370001,25.389999,25.250000,25.260000,25.260000,1182000
2013-06-28,25.299999,25.379999,25.090000,25.129999,25.129999,2842400
2013-07-01,25.340000,25.500000,25.209999,25.290001,25.290001,1321500
2013-07-02,25.400000,25.469999,25.330000,25.389999,25.389999,1615800
2013-07-03,25.600000,25.660000,25.549999,25.620001,25.620001,1382900
2013-07-05,25.530001,25.590000,25.430000,25.559999,25.559999,2627000
2013-07-08,25.629999,25.770000,25.620001,25.690001,25.690001,3575400
2013-07-09,25.820000,25.870001,25.719999,25.850000,25.850000,1077600
2013-07-10,26.010000,26.030001,25.910000,25.930000,25.930000,3148900
2013-07-11,26.100000,26.139999,25.930000,26.059999,26.059999,1427200
2013-07-12,26.160000,26.170000,26.090000,26.160000,26.160000,4106300
2013-07-15,26.049999,26.120001,26.010000,26.090000,26.090000,1477600
2013-07-16,26.170000,26.240000,26.120001,26.120001,26.120001,1308400
2013-07-17,26.160000,26.170000,26.070000,26.100000,26.100000,944200
2013-07-18,26.120001,26.219999,26.100000,26.209999,26.209999,1176300
2013-07-19,26.270000,26.280001,26.070000,26.230000,26.230000,1327400
2013-07-22,26.270000,26.299999,26.160000,26.209999,26.209999,1807600
2013-07-23,26.240000,26.280001,26.209999,26.250000,26.250000,1237700
2013-07-24,26.160000,26.250000,25.980000,26.040001,26.040001,1429000
2013-07-25,25.980000,26.030001,25.840000,26.010000,26.010000,1215100
2013-07-26,25.900000,25.910000,25.740000,25.850000,25.850000,833600
2013-07-29,25.809999,25.860001,25.740000,25.840000,25.840000,882200
2013-07-30,25.780001,25.799999,25.670000,25.750000,25.750000,1729200
2013-07-31,25.610001,25.969999,25.570000,25.930000,25.930000,1257700
2013-08-01,26.049999,26.059999,25.950001,25.990000,25.990000,1856300
2013-08-02,25.959999,26.010000,25.879999,25.889999,25.889999,1216700
2013-08-05,25.690001,25.809999,25.670000,25.760000,25.760000,1031800
2013-08-06,25.690001,25.690001,25.500000,25.549999,25.549999,1781400
2013-08-07,25.469999,25.510000,25.350000,25.379999,25.379999,1298100
2013-08-08,25.410000,25.530001,25.299999,25.510000,25.510000,1150200
2013-08-09,25.590000,25.730000,25.580000,25.690001,25.690001,1063700
2013-08-12,25.809999,26.020000,25.760000,26.000000,26.000000,887800
2013-08-13,26.040001,26.049999,25.959999,25.990000,25.990000,917800
2013-08-14,25.990000,26.200001,25.980000,26.200001,26.200001,1693200
2013-08-15,26.260000,26.459999,26.160000,26.450001,26.450001,1724200
2013-08-16,26.459999,26.490000,26.340000,26.459999,26.459999,1708400
2013-08-19,26.510000,26.580000,26.400000,26.430000,26.430000,2371900
2013-08-20,26.309999,26.530001,26.299999,26.379999,26.379999,1334800
2013-08-21,26.410000,26.430000,26.330000,26.350000,26.350000,1423700
2013-08-22,26.360001,26.410000,26.299999,26.360001,26.360001,1673100
2013-08-23,26.430000,26.620001,26.389999,26.570000,26.570000,1384500
2013-08-26,26.709999,26.780001,26.620001,26.719999,26.719999,1190000
2013-08-27,26.990000,27.059999,26.920000,26.980000,26.980000,1878200
2013-08-28,27.020000,27.110001,26.980000,27.020000,27.020000,2376700
2013-08-29,26.980000,27.020000,26.730000,26.740000,26.740000,1251800
2013-08-30,26.730000,26.790001,26.549999,26.660000,26.660000,5229600
2013-09-03,26.809999,26.860001,26.700001,26.799999,26.799999,5447200
2013-09-04,26.549999,26.590000,26.490000,26.570000,26.570000,12295700
2013-09-05,26.590000,26.590000,26.420000,26.510000,26.510000,1297400
2013-09-06,26.670000,26.750000,26.610001,26.660000,26.660000,2600500
2013-09-09,26.600000,26.690001,26.459999,26.490000,26.490000,2148900
2013-09-10,26.209999,26.290001,26.170000,26.250000,26.250000,1288800
2013-09-11,26.309999,26.330000,26.180000,26.290001,26.290001,1521400
2013-09-12,26.250000,26.450001,26.219999,26.420000,26.420000,2274300
2013-09-13,26.280001,26.360001,26.180000,26.340000,26.340000,1148600
2013-09-16,26.120001,26.200001,26.010000,26.010000,26.010000,1427400
2013-09-17,26.010000,26.030001,25.709999,25.740000,25.740000,3673300
2013-09-18,25.840000,26.330000,25.809999,26.299999,26.299999,1473700
2013-09-19,26.379999,26.410000,26.160000,26.200001,26.200001,3198000
2013-09-20,26.090000,26.180000,25.940001,25.959999,25.959999,1424600
2013-09-23,25.850000,25.889999,25.750000,25.770000,25.770000,3697100
2013-09-24,25.690001,25.820000,25.610001,25.760000,25.760000,3354800
2013-09-25,25.900000,25.969999,25.790001,25.799999,25.799999,2383300
2013-09-26,25.910000,26.030001,25.889999,26.000000,26.000000,1226000
2013-09-27,25.959999,26.090000,25.870001,25.870001,25.870001,1619700
2013-09-30,25.820000,25.889999,25.719999,25.760000,25.760000,17407400
2013-10-01,25.580000,25.629999,25.430000,25.590000,25.590000,6424400
2013-10-02,25.680000,25.900000,25.629999,25.840000,25.840000,2193100
2013-10-03,26.020000,26.020000,25.799999,25.799999,25.799999,1212500
2013-10-04,25.959999,25.959999,25.799999,25.879999,25.879999,1224500
2013-10-07,25.830000,26.090000,25.750000,26.059999,26.059999,1691800
2013-10-08,26.209999,26.270000,26.129999,26.150000,26.150000,1774400
2013-10-09,26.000000,26.049999,25.870001,25.959999,25.959999,2811500
2013-10-10,26.090000,26.330000,26.059999,26.290001,26.290001,1180600
2013-10-11,26.040001,26.170000,26.010000,26.150000,26.150000,1076900
2013-10-14,26.090000,26.230000,26.040001,26.139999,26.139999,1560900
2013-10-15,26.080000,26.160000,26.049999,26.049999,26.049999,1346100
2013-10-16,26.170000,26.379999,26.150000,26.250000,26.250000,2097700
2013-10-17,26.180000,26.260000,26.049999,26.110001,26.110001,2061600
2013-10-18,26.230000,26.270000,26.129999,26.260000,26.260000,1289600
2013-10-21,26.260000,26.290001,26.150000,26.200001,26.200001,1468100
2013-10-22,26.299999,26.340000,26.120001,26.170000,26.170000,1276000
2013-10-23,25.930000,25.959999,25.740000,25.770000,25.770000,1036800
2013-10-24,25.680000,25.809999,25.660000,25.780001,25.780001,1128100
2013-10-25,25.740000,25.870001,25.719999,25.860001,25.860001,1197600
2013-10-28,25.900000,26.020000,25.850000,25.959999,25.959999,1137200
2013-10-29,25.860001,25.930000,25.799999,25.889999,25.889999,2494000
2013-10-30,25.969999,26.000000,25.889999,25.969999,25.969999,1106100
2013-10-31,25.889999,25.930000,25.719999,25.750000,25.750000,2376000
2013-11-01,25.559999,25.559999,25.360001,25.430000,25.430000,2624000
2013-11-04,25.309999,25.400000,25.290001,25.320000,25.320000,1648500
2013-11-05,25.320000,25.340000,25.209999,25.250000,25.250000,1522900
2013-11-06,25.340000,25.400000,25.270000,25.270000,25.270000,1702900
2013-11-07,25.180000,25.240000,25.049999,25.090000,25.090000,2842900
2013-11-08,25.040001,25.270000,25.000000,25.230000,25.230000,1453000
2013-11-11,25.240000,25.370001,25.209999,25.340000,25.340000,1045400
2013-11-12,25.370001,25.370001,25.110001,25.170000,25.170000,1606600
2013-11-13,25.280001,25.320000,25.180000,25.280001,25.280001,1313700
2013-11-14,25.330000,25.490000,25.260000,25.389999,25.389999,1524500
2013-11-15,25.370001,25.410000,25.330000,25.350000,25.350000,1369400
2013-11-18,25.379999,25.379999,25.180000,25.180000,25.180000,2611100
2013-11-19,25.170000,25.290001,25.120001,25.139999,25.139999,1426900
2013-11-20,25.110001,25.280001,25.110001,25.160000,25.160000,1313500
2013-11-21,25.280001,25.480000,25.209999,25.480000,25.480000,2304500
2013-11-22,25.580000,25.600000,25.420000,25.559999,25.559999,1999100
2013-11-25,25.459999,25.610001,25.400000,25.530001,25.530001,1378200
2013-11-26,25.510000,25.570000,25.420000,25.520000,25.520000,1754900
2013-11-27,25.530001,25.530001,25.389999,25.520000,25.520000,1040100
2013-11-29,25.360001,25.620001,25.360001,25.510000,25.510000,1029700
2013-12-02,25.430000,25.610001,25.410000,25.480000,25.480000,5001000
2013-12-03,25.490000,25.680000,25.490000,25.629999,25.629999,1399600
2013-12-04,25.629999,25.799999,25.629999,25.680000,25.680000,2137800
2013-12-05,25.660000,25.719999,25.600000,25.650000,25.650000,1672300
2013-12-06,25.740000,25.760000,25.680000,25.740000,25.740000,1050000
2013-12-09,25.790001,25.799999,25.620001,25.650000,25.650000,2037300
2013-12-10,25.809999,25.809999,25.670000,25.730000,25.730000,1973700
2013-12-11,25.680000,25.750000,25.650000,25.730000,25.730000,1964800
2013-12-12,25.660000,25.660000,25.440001,25.490000,25.490000,1840200
2013-12-13,25.440001,25.459999,25.379999,25.389999,25.389999,1585100
2013-12-16,25.459999,25.600000,25.450001,25.469999,25.469999,3035200
2013-12-17,25.420000,25.459999,25.340000,25.350000,25.350000,9614600
2013-12-18,25.420000,25.540001,25.389999,25.400000,25.400000,6495600
2013-12-19,25.389999,25.530001,25.379999,25.459999,25.459999,2614300
2013-12-20,25.629999,25.700001,25.559999,25.660000,25.660000,2716700
2013-12-23,25.719999,25.719999,25.610001,25.660000,25.660000,2961900
2013-12-24,25.709999,25.770000,25.660000,25.740000,25.740000,1252600
2013-12-26,25.200001,25.820000,25.200001,25.780001,25.780001,1759700
2013-12-27,25.170000,25.920000,25.160000,25.850000,25.850000,1865900
2013-12-30,25.480000,25.809999,25.480000,25.700001,25.700001,3367600
2013-12-31,25.549999,25.690001,25.540001,25.660000,25.660000,2268200
2014-01-02,25.510000,25.549999,25.280001,25.290001,25.290001,2064400
2014-01-03,25.250000,25.280001,25.110001,25.129999,25.129999,1797200
2014-01-06,25.190001,25.219999,25.120001,25.160000,25.160000,1790400
2014-01-07,25.129999,25.180000,25.100000,25.139999,25.139999,1257200
2014-01-08,25.080000,25.100000,24.860001,24.900000,24.900000,1346800
2014-01-09,24.870001,24.879999,24.629999,24.700001,24.700001,1185300
2014-01-10,24.760000,24.889999,24.709999,24.860001,24.860001,3678000
2014-01-13,24.860001,24.920000,24.830000,24.850000,24.850000,2131100
2014-01-14,24.870001,24.990000,24.770000,24.850000,24.850000,1089900
2014-01-15,24.850000,25.020000,24.809999,24.920000,24.920000,1487000
2014-01-16,24.980000,25.000000,24.879999,24.879999,24.879999,2372100
2014-01-17,24.950001,25.010000,24.900000,24.910000,24.910000,1446600
2014-01-21,25.030001,25.070000,24.940001,24.969999,24.969999,1848500
2014-01-22,25.080000,25.120001,25.010000,25.090000,25.090000,1557600
2014-01-23,25.160000,25.230000,25.040001,25.070000,25.070000,1164500
2014-01-24,25.059999,25.129999,25.010000,25.080000,25.080000,3067300
2014-01-27,25.059999,25.100000,24.870001,24.910000,24.910000,1882700
2014-01-28,25.000000,25.070000,24.980000,25.030001,25.030001,1338000
2014-01-29,24.990000,25.059999,24.950001,25.010000,25.010000,1534400
2014-01-30,25.059999,25.070000,24.910000,24.910000,24.910000,1712200
2014-01-31,24.889999,24.980000,24.850000,24.879999,24.879999,1689600
2014-02-03,24.879999,24.950001,24.820000,24.879999,24.879999,2314000
2014-02-04,24.959999,25.080000,24.959999,25.070000,25.070000,2000000
2014-02-05,25.120001,25.150000,25.010000,25.120001,25.120001,1184500
2014-02-06,25.260000,25.299999,25.180000,25.219999,25.219999,1083700
2014-02-07,25.350000,25.530001,25.280001,25.510000,25.510000,1356000
2014-02-10,25.459999,25.520000,25.370001,25.370001,25.370001,1901600
2014-02-11,25.440001,25.520000,25.340000,25.500000,25.500000,1429600
2014-02-12,25.600000,25.690001,25.549999,25.549999,25.549999,3575300
2014-02-13,25.540001,25.690001,25.540001,25.690001,25.690001,3652900
2014-02-14,25.620001,25.820000,25.620001,25.780001,25.780001,2148800
2014-02-18,25.969999,26.180000,25.969999,26.150000,26.150000,1895400
2014-02-19,26.170000,26.290001,26.150000,26.219999,26.219999,2154800
2014-02-20,26.180000,26.270000,26.160000,26.270000,26.270000,4146500
2014-02-21,26.260000,26.260000,26.090000,26.200001,26.200001,1027500
2014-02-24,26.200001,26.340000,26.190001,26.309999,26.309999,2531500
2014-02-25,26.219999,26.260000,26.120001,26.190001,26.190001,1302100
2014-02-26,26.139999,26.200001,26.100000,26.120001,26.120001,1208900
2014-02-27,26.070000,26.150000,26.020000,26.040001,26.040001,955600
2014-02-28,25.980000,26.129999,25.969999,26.129999,26.129999,1861100
2014-03-03,26.530001,26.590000,26.370001,26.490000,26.490000,5428200
2014-03-04,26.299999,26.410000,26.240000,26.389999,26.389999,1283100
2014-03-05,26.400000,26.400000,26.160000,26.170000,26.170000,3417200
2014-03-06,26.180000,26.410000,26.180000,26.410000,26.410000,956900
2014-03-07,26.299999,26.340000,26.230000,26.290001,26.290001,2120600
2014-03-10,26.120001,26.170000,26.049999,26.070000,26.070000,1710100
2014-03-11,26.110001,26.160000,26.010000,26.080000,26.080000,1821300
2014-03-12,25.889999,26.049999,25.850000,26.010000,26.010000,1026800
2014-03-13,25.990000,26.000000,25.850000,25.889999,25.889999,1182000
2014-03-14,25.959999,26.059999,25.940001,26.030001,26.030001,827500
2014-03-17,25.930000,25.959999,25.740000,25.740000,25.740000,1563700
2014-03-18,25.719999,25.920000,25.719999,25.870001,25.870001,1091800
2014-03-19,25.740000,25.940001,25.709999,25.860001,25.860001,1194200
2014-03-20,25.790001,25.889999,25.680000,25.740000,25.740000,1393200
2014-03-21,25.770000,25.900000,25.750000,25.760000,25.760000,1410800
2014-03-24,25.860001,25.900000,25.740000,25.750000,25.750000,1574000
2014-03-25,25.900000,26.020000,25.870001,25.920000,25.920000,1186300
2014-03-26,25.840000,25.980000,25.830000,25.900000,25.900000,1156500
2014-03-27,26.030001,26.180000,26.020000,26.129999,26.129999,742400
2014-03-28,26.200001,26.250000,26.139999,26.139999,26.139999,1789900
2014-03-31,26.120001,26.139999,25.940001,26.120001,26.120001,1455500
2014-04-01,26.059999,26.100000,25.790001,25.799999,25.799999,1986400
2014-04-02,25.770000,25.799999,25.690001,25.740000,25.740000,664300
2014-04-03,25.790001,26.000000,25.740000,25.950001,25.950001,1289200
2014-04-04,26.090000,26.090000,26.040001,26.070000,26.070000,824700
2014-04-07,26.020000,26.120001,25.910000,26.010000,26.010000,738900
2014-04-08,26.120001,26.360001,26.080000,26.309999,26.309999,790200
2014-04-09,26.340000,26.430000,26.299999,26.379999,26.379999,1411100
2014-04-10,26.389999,26.459999,26.340000,26.389999,26.389999,984900
2014-04-11,26.320000,26.400000,26.270000,26.270000,26.270000,1679100
2014-04-14,26.440001,26.549999,26.400000,26.510000,26.510000,1438500
2014-04-15,26.400000,26.559999,26.370001,26.530001,26.530001,1059700
2014-04-16,26.670000,26.719999,26.540001,26.580000,26.580000,1378300
2014-04-17,26.530001,26.660000,26.520000,26.639999,26.639999,1295800
2014-04-21,26.580000,26.580000,26.490000,26.549999,26.549999,892300
2014-04-22,26.530001,26.559999,26.400000,26.540001,26.540001,2401800
2014-04-23,26.530001,26.570000,26.490000,26.520000,26.520000,1073200
2014-04-24,26.650000,26.709999,26.610001,26.680000,26.680000,901400
2014-04-25,26.590000,26.620001,26.540001,26.570000,26.570000,660600
2014-04-28,26.600000,26.600000,26.410000,26.480000,26.480000,609300
2014-04-29,26.559999,26.600000,26.520000,26.549999,26.549999,1083500
2014-04-30,26.389999,26.580000,26.309999,26.410000,26.410000,4399300
2014-05-01,26.200001,26.240000,26.110001,26.209999,26.209999,1641100
2014-05-02,26.240000,26.320000,26.190001,26.280001,26.280001,1171300
2014-05-05,26.230000,26.270000,26.180000,26.219999,26.219999,4158400
2014-05-06,26.240000,26.330000,26.219999,26.240000,26.240000,1001700
2014-05-07,26.240000,26.330000,26.139999,26.309999,26.309999,933600
2014-05-08,26.200001,26.240000,26.139999,26.230000,26.230000,3119000
2014-05-09,26.240000,26.260000,26.059999,26.100000,26.100000,603000
2014-05-12,26.180000,26.209999,26.129999,26.160000,26.160000,1328900
2014-05-13,26.240000,26.299999,26.180000,26.280001,26.280001,689900
2014-05-14,26.379999,26.420000,26.320000,26.400000,26.400000,1297100
2014-05-15,26.330000,26.330000,26.230000,26.240000,26.240000,1049800
2014-05-16,26.250000,26.299999,26.230000,26.270000,26.270000,847500
2014-05-19,26.340000,26.389999,26.250000,26.250000,26.250000,1157700
2014-05-20,26.260000,26.360001,26.250000,26.299999,26.299999,536300
2014-05-21,26.299999,26.410000,26.270000,26.350000,26.350000,802600
2014-05-22,26.459999,26.469999,26.309999,26.370001,26.370001,1131700
2014-05-23,26.400000,26.440001,26.370001,26.430000,26.430000,554000
2014-05-27,26.250000,26.320000,26.209999,26.209999,26.209999,1093300
2014-05-28,26.200001,26.280001,26.150000,26.219999,26.219999,1164800
2014-05-29,26.280001,26.280001,26.209999,26.230000,26.230000,707000
2014-05-30,26.100000,26.150000,25.990000,26.030001,26.030001,5480800
2014-06-02,25.980000,26.020000,25.959999,26.000000,26.000000,2445900
2014-06-03,25.959999,26.000000,25.920000,25.980000,25.980000,1054700
2014-06-04,26.000000,26.000000,25.879999,25.910000,25.910000,1605300
2014-06-05,25.870001,25.969999,25.799999,25.940001,25.940001,504300
2014-06-06,25.940001,26.059999,25.889999,26.049999,26.049999,625700
2014-06-09,26.120001,26.160000,26.090000,26.160000,26.160000,1569300
2014-06-10,26.129999,26.160000,25.990000,26.090000,26.090000,764400
2014-06-11,26.110001,26.120001,26.000000,26.020000,26.020000,2716500
2014-06-12,26.250000,26.410000,26.170000,26.389999,26.389999,3854500
2014-06-13,26.420000,26.469999,26.370001,26.389999,26.389999,1044500
2014-06-16,26.440001,26.520000,26.420000,26.469999,26.469999,972000
2014-06-17,26.459999,26.559999,26.450001,26.500000,26.500000,586200
2014-06-18,26.500000,26.660000,26.500000,26.610001,26.610001,960300
2014-06-19,26.750000,26.920000,26.750000,26.870001,26.870001,888600
2014-06-20,26.870001,26.930000,26.809999,26.920000,26.920000,2099500
2014-06-23,26.930000,26.940001,26.790001,26.820000,26.820000,1300000
2014-06-24,26.780001,26.900000,26.780001,26.860001,26.860001,934700
2014-06-25,26.770000,26.900000,26.760000,26.900000,26.900000,936300
2014-06-26,26.850000,26.850000,26.730000,26.790001,26.790001,1082200
2014-06-27,26.799999,26.830000,26.709999,26.740000,26.740000,723400
2014-06-30,26.680000,26.700001,26.510000,26.580000,26.580000,15876300
2014-07-01,26.500000,26.530001,26.450001,26.500000,26.500000,2226300
2014-07-02,26.450001,26.520000,26.420000,26.450001,26.450001,5938500
2014-07-03,26.430000,26.469999,26.389999,26.400000,26.400000,824800
2014-07-07,26.309999,26.320000,26.150000,26.190001,26.190001,7393700
2014-07-08,26.230000,26.230000,26.049999,26.120001,26.120001,844200
2014-07-09,26.040001,26.049999,25.900000,25.940001,25.940001,8581400
2014-07-10,25.969999,26.020000,25.920000,25.980000,25.980000,1113300
2014-07-11,25.910000,25.910000,25.730000,25.750000,25.750000,984000
2014-07-14,25.740000,25.850000,25.690001,25.850000,25.850000,1005700
2014-07-15,25.700001,25.700001,25.559999,25.610001,25.610001,1269800
2014-07-16,25.719999,25.780001,25.650000,25.650000,25.650000,1303200
2014-07-17,25.719999,25.809999,25.580000,25.709999,25.709999,650300
2014-07-18,25.670000,25.690001,25.520000,25.540001,25.540001,1745700
2014-07-21,25.559999,25.690001,25.549999,25.660000,25.660000,1493600
2014-07-22,25.740000,25.750000,25.540001,25.549999,25.549999,1653000
2014-07-23,25.570000,25.639999,25.530001,25.620001,25.620001,581200
2014-07-24,25.700001,25.709999,25.559999,25.590000,25.590000,1146700
2014-07-25,25.549999,25.719999,25.500000,25.690001,25.690001,857200
2014-07-28,25.650000,25.709999,25.570000,25.639999,25.639999,875400
2014-07-29,25.580000,25.590000,25.450001,25.559999,25.559999,1403500
2014-07-30,25.580000,25.600000,25.430000,25.450001,25.450001,1519900
2014-07-31,25.430000,25.469999,25.299999,25.320000,25.320000,1678900
2014-08-01,25.219999,25.250000,25.100000,25.120001,25.120001,1995400
2014-08-04,25.219999,25.370001,25.190001,25.309999,25.309999,2100700
2014-08-05,25.230000,25.240000,25.120001,25.190001,25.190001,1915000
2014-08-06,25.260000,25.389999,25.240000,25.350000,25.350000,1700200
2014-08-07,25.400000,25.430000,25.299999,25.400000,25.400000,508300
2014-08-08,25.360001,25.379999,25.230000,25.280001,25.280001,631500
2014-08-11,25.309999,25.410000,25.299999,25.320000,25.320000,535500
2014-08-12,25.250000,25.280001,25.120001,25.160000,25.160000,1048800
2014-08-13,25.170000,25.190001,25.030001,25.139999,25.139999,850500
2014-08-14,25.020000,25.049999,24.820000,24.840000,24.840000,949900
2014-08-15,24.850000,25.000000,24.760000,24.940001,24.940001,1351100
2014-08-18,24.790001,24.790001,24.700001,24.730000,24.730000,2842200
2014-08-19,24.799999,24.809999,24.709999,24.780001,24.780001,792800
2014-08-20,24.870001,24.910000,24.760000,24.850000,24.850000,677200
2014-08-21,24.809999,24.930000,24.790001,24.910000,24.910000,727000
2014-08-22,24.900000,24.950001,24.830000,24.870001,24.870001,2265000
2014-08-25,24.910000,24.930000,24.840000,24.910000,24.910000,755400
2014-08-26,24.990000,25.010000,24.860001,24.920000,24.920000,1029100
2014-08-27,24.969999,25.010000,24.860001,24.959999,24.959999,757000
2014-08-28,25.030001,25.059999,24.940001,24.980000,24.980000,544200
2014-08-29,25.049999,25.070000,24.980000,25.030001,25.030001,1131800
2014-09-02,24.850000,24.879999,24.639999,24.670000,24.670000,3917900
2014-09-03,24.790001,24.850000,24.680000,24.770000,24.770000,882700
2014-09-04,24.809999,24.840000,24.620001,24.670000,24.670000,774000
2014-09-05,24.650000,24.709999,24.490000,24.629999,24.629999,712900
2014-09-08,24.420000,24.520000,24.400000,24.510000,24.510000,578900
2014-09-09,24.389999,24.420000,24.280001,24.309999,24.309999,1534300
2014-09-10,24.240000,24.240000,24.070000,24.139999,24.139999,1476600
2014-09-11,23.969999,24.049999,23.860001,24.020000,24.020000,1504200
2014-09-12,23.969999,23.980000,23.830000,23.830000,23.830000,1537700
2014-09-15,23.760000,23.910000,23.750000,23.860001,23.860001,1223700
2014-09-16,23.930000,24.150000,23.900000,24.080000,24.080000,1033800
2014-09-17,24.090000,24.090000,23.959999,23.980000,23.980000,1000300
2014-09-18,23.920000,23.959999,23.740000,23.750000,23.750000,739000
2014-09-19,23.719999,23.760000,23.610001,23.680000,23.680000,672100
2014-09-22,23.559999,23.570000,23.379999,23.480000,23.480000,1027700
2014-09-23,23.480000,23.549999,23.440001,23.480000,23.480000,886900
2014-09-24,23.430000,23.620001,23.340000,23.580000,23.580000,1301100
2014-09-25,23.590000,23.590000,23.430000,23.530001,23.530001,1280300
2014-09-26,23.500000,23.540001,23.440001,23.490000,23.490000,761500
2014-09-29,23.469999,23.670000,23.469999,23.629999,23.629999,1501000
2014-09-30,23.570000,23.590000,23.160000,23.219999,23.219999,1576500
2014-10-01,23.209999,23.379999,23.090000,23.139999,23.139999,1442600
2014-10-02,22.930000,23.070000,22.809999,23.049999,23.049999,2061900
2014-10-03,22.920000,22.920000,22.760000,22.830000,22.830000,1647300
2014-10-06,22.900000,23.150000,22.840000,23.120001,23.120001,1849000
2014-10-07,23.020000,23.090000,22.990000,23.030001,23.030001,1556000
2014-10-08,22.920000,22.959999,22.770000,22.940001,22.940001,2886300
2014-10-09,22.860001,22.900000,22.620001,22.670000,22.670000,17027500
2014-10-10,22.620001,22.690001,22.450001,22.590000,22.590000,2911600
2014-10-13,22.510000,22.700001,22.469999,22.590000,22.590000,1014900
2014-10-14,22.510000,22.510000,22.209999,22.250000,22.250000,1910000
2014-10-15,22.180000,22.250000,21.920000,21.969999,21.969999,2848500
2014-10-16,21.850000,22.459999,21.809999,22.190001,22.190001,2205400
2014-10-17,22.270000,22.320000,22.170000,22.270000,22.270000,2413000
2014-10-20,22.139999,22.180000,21.990000,22.110001,22.110001,1068900
2014-10-21,22.230000,22.309999,22.160000,22.290001,22.290001,1461600
2014-10-22,22.379999,22.400000,22.040001,22.040001,22.040001,1798900
2014-10-23,22.170000,22.330000,22.150000,22.299999,22.299999,3368700
2014-10-24,22.250000,22.250000,22.090000,22.160000,22.160000,1545100
2014-10-27,21.930000,22.150000,21.889999,22.100000,22.100000,2168100
2014-10-28,22.200001,22.299999,22.129999,22.280001,22.280001,1374700
2014-10-29,22.490000,22.639999,22.450001,22.540001,22.540001,1274700
2014-10-30,22.379999,22.480000,22.320000,22.350000,22.350000,1232200
2014-10-31,22.110001,22.330000,22.059999,22.320000,22.320000,1901000
2014-11-03,22.250000,22.370001,22.080000,22.120001,22.120001,1322700
2014-11-04,21.870001,21.889999,21.740000,21.799999,21.799999,1779900
2014-11-05,21.629999,21.959999,21.629999,21.860001,21.860001,1581200
2014-11-06,21.770000,21.910000,21.700001,21.879999,21.879999,1295600
2014-11-07,21.920000,22.040001,21.920000,21.980000,21.980000,1201300
2014-11-10,22.059999,22.120001,21.740000,21.770000,21.770000,1854900
2014-11-11,21.719999,21.950001,21.680000,21.879999,21.879999,1082800
2014-11-12,21.870001,21.990000,21.790001,21.809999,21.809999,1988600
2014-11-13,21.700001,21.730000,21.330000,21.410000,21.410000,1345200
2014-11-14,21.410000,21.660000,21.400000,21.639999,21.639999,2859700
2014-11-17,21.469999,21.600000,21.430000,21.549999,21.549999,1517700
2014-11-18,21.480000,21.520000,21.379999,21.440001,21.440001,1473000
2014-11-19,21.540001,21.540001,21.320000,21.330000,21.330000,1161900
2014-11-20,21.440001,21.549999,21.410000,21.510000,21.510000,1539300
2014-11-21,21.700001,21.790001,21.590000,21.740000,21.740000,8061500
2014-11-24,21.620001,21.719999,21.540001,21.549999,21.549999,2956800
2014-11-25,21.670000,21.719999,21.430000,21.450001,21.450001,2468300
2014-11-26,21.410000,21.530001,21.400000,21.400000,21.400000,2360400
2014-11-28,20.740000,20.770000,20.370001,20.420000,20.420000,903100
2014-12-01,20.350000,20.850000,20.330000,20.840000,20.840000,3661600
2014-12-02,20.580000,20.809999,20.320000,20.400000,20.400000,3058400
2014-12-03,20.290001,20.420000,20.200001,20.280001,20.280001,3379800
2014-12-04,20.170000,20.290001,20.139999,20.219999,20.219999,2101900
2014-12-05,20.129999,20.260000,20.030001,20.170000,20.170000,2047400
2014-12-08,20.000000,20.020000,19.799999,19.820000,19.820000,3357200
2014-12-09,19.790001,20.000000,19.780001,19.959999,19.959999,2689000
2014-12-10,19.760000,19.799999,19.490000,19.650000,19.650000,5415900
2014-12-11,19.480000,19.690001,19.469999,19.469999,19.469999,3634700
2014-12-12,19.440001,19.469999,19.290001,19.309999,19.309999,3346100
2014-12-15,19.350000,19.379999,18.990000,19.000000,19.000000,6393000
2014-12-16,18.799999,19.070000,18.770000,18.889999,18.889999,4297600
2014-12-17,18.850000,19.309999,18.790001,19.000000,19.000000,7656300
2014-12-18,19.270000,19.309999,18.860001,18.940001,18.940001,4960200
2014-12-19,19.020000,19.280001,18.940001,19.219999,19.219999,3617500
2014-12-22,19.049999,19.049999,18.840000,18.870001,18.870001,5826700
2014-12-23,18.860001,19.129999,18.860001,19.059999,19.059999,5627200
2014-12-24,18.889999,18.920000,18.760000,18.809999,18.809999,2069600
2014-12-26,18.870001,18.889999,18.719999,18.790001,18.790001,2913100
2014-12-29,18.889999,18.940001,18.510000,18.610001,18.610001,4566200
2014-12-30,18.580000,18.719999,18.549999,18.590000,18.590000,4735800
2014-12-31,18.389999,18.500000,18.219999,18.450001,18.450001,21526500
2015-01-02,18.270000,18.379999,18.180000,18.230000,18.230000,1967300
2015-01-05,18.150000,18.150000,17.950001,17.969999,17.969999,1827500
2015-01-06,17.950001,18.030001,17.750000,17.799999,17.799999,1843100
2015-01-07,17.780001,17.860001,17.600000,17.690001,17.690001,1868400
2015-01-08,17.660000,17.760000,17.580000,17.760000,17.760000,1409400
2015-01-09,17.709999,17.780001,17.540001,17.730000,17.730000,3463600
2015-01-12,17.510000,17.510000,17.330000,17.340000,17.340000,4562400
2015-01-13,17.280001,17.299999,17.070000,17.270000,17.270000,2898600
2015-01-14,17.150000,17.520000,17.059999,17.459999,17.459999,2774300
2015-01-15,17.600000,17.629999,17.209999,17.219999,17.219999,1827800
2015-01-16,17.350000,17.590000,17.320000,17.549999,17.549999,1726200
2015-01-20,17.309999,17.389999,17.209999,17.309999,17.309999,2409000
2015-01-21,17.420000,17.500000,17.350000,17.420000,17.420000,2282200
2015-01-22,17.510000,17.530001,17.320000,17.400000,17.400000,3736700
2015-01-23,17.299999,17.400000,17.250000,17.290001,17.290001,1889100
2015-01-26,17.280001,17.400000,17.230000,17.230000,17.230000,1718300
2015-01-27,17.209999,17.400000,17.190001,17.320000,17.320000,3261700
2015-01-28,17.209999,17.280001,17.059999,17.070000,17.070000,3647800
2015-01-29,17.090000,17.090000,16.840000,16.990000,16.990000,2221700
2015-01-30,16.950001,17.490000,16.930000,17.400000,17.400000,3535200
2015-02-02,17.570000,17.670000,17.400000,17.639999,17.639999,2878400
2015-02-03,17.910000,18.389999,17.860001,18.129999,18.129999,5713100
2015-02-04,18.030001,18.030001,17.610001,17.730000,17.730000,4597900
2015-02-05,17.750000,18.080000,17.750000,17.969999,17.969999,2395500
2015-02-06,18.020000,18.120001,17.920000,18.020000,18.020000,2735100
2015-02-09,18.139999,18.299999,18.090000,18.200001,18.200001,2060700
2015-02-10,18.180000,18.190001,17.879999,17.969999,17.969999,1172500
2015-02-11,17.850000,17.900000,17.650000,17.830000,17.830000,3233400
2015-02-12,18.000000,18.150000,17.930000,18.100000,18.100000,11000200
2015-02-13,18.290001,18.370001,18.240000,18.299999,18.299999,2173800
2015-02-17,18.230000,18.410000,18.080000,18.309999,18.309999,1631700
2015-02-18,18.240000,18.299999,18.049999,18.090000,18.090000,2454500
2015-02-19,17.850000,18.120001,17.809999,18.030001,18.030001,1131800
2015-02-20,18.090000,18.100000,17.930000,17.959999,17.959999,1674600
2015-02-23,17.860001,17.990000,17.790001,17.840000,17.840000,1583800
2015-02-24,17.940001,18.070000,17.840000,17.850000,17.850000,1183100
2015-02-25,17.950001,18.129999,17.910000,18.120001,18.120001,1861500
2015-02-26,18.059999,18.110001,17.879999,17.969999,17.969999,952400
2015-02-27,18.100000,18.240000,18.030001,18.170000,18.170000,964100
2015-03-02,18.070000,18.110001,17.850000,17.910000,17.910000,1449400
2015-03-03,17.980000,18.059999,17.930000,18.020000,18.020000,1588300
2015-03-04,17.930000,17.950001,17.770000,17.860001,17.860001,1476900
2015-03-05,17.900000,17.940001,17.740000,17.790001,17.790001,1244000
2015-03-06,17.719999,17.730000,17.530001,17.570000,17.570000,7454700
2015-03-09,17.610001,17.670000,17.490000,17.520000,17.520000,1280700
2015-03-10,17.299999,17.350000,17.209999,17.290001,17.290001,1580800
2015-03-11,17.320000,17.400000,17.200001,17.379999,17.379999,1390600
2015-03-12,17.490000,17.500000,17.240000,17.299999,17.299999,1146200
2015-03-13,17.230000,17.230000,16.950001,16.950001,16.950001,1924600
2015-03-16,16.900000,16.959999,16.719999,16.930000,16.930000,1888400
2015-03-17,16.809999,16.870001,16.750000,16.809999,16.809999,1370500
2015-03-18,16.740000,17.280001,16.709999,17.270000,17.270000,2163200
2015-03-19,16.980000,17.059999,16.900000,16.980000,16.980000,1165500
2015-03-20,17.120001,17.280001,17.110001,17.209999,17.209999,1457400
2015-03-23,17.280001,17.440001,17.260000,17.410000,17.410000,1469000
2015-03-24,17.340000,17.350000,17.250000,17.270000,17.270000,1512700
2015-03-25,17.340000,17.440001,17.240000,17.320000,17.320000,1540100
2015-03-26,17.540001,17.600000,17.450001,17.530001,17.530001,1678700
2015-03-27,17.410000,17.430000,17.180000,17.180000,17.180000,675400
2015-03-30,17.219999,17.330000,17.150000,17.270000,17.270000,993200
2015-03-31,17.129999,17.270000,17.059999,17.070000,17.070000,2302400
2015-04-01,17.129999,17.480000,17.090000,17.379999,17.379999,1893200
2015-04-02,17.250000,17.350000,17.180000,17.290001,17.290001,1256800
2015-04-06,17.450001,17.600000,17.350000,17.510000,17.510000,1377800
2015-04-07,17.510000,17.660000,17.430000,17.600000,17.600000,1274100
2015-04-08,17.549999,17.559999,17.190001,17.260000,17.260000,904000
2015-04-09,17.280001,17.389999,17.209999,17.260000,17.260000,1321400
2015-04-10,17.389999,17.469999,17.360001,17.440001,17.440001,804200
2015-04-13,17.480000,17.510000,17.320000,17.360001,17.360001,1210300
2015-04-14,17.420000,17.530001,17.379999,17.440001,17.440001,1302500
2015-04-15,17.549999,17.879999,17.510000,17.790001,17.790001,5697900
2015-04-16,17.830000,18.070000,17.790001,17.980000,17.980000,1718200
2015-04-17,17.969999,18.049999,17.870001,17.940001,17.940001,1226500
2015-04-20,17.809999,17.930000,17.780001,17.860001,17.860001,1002800
2015-04-21,17.780001,17.840000,17.690001,17.730000,17.730000,1305400
2015-04-22,17.780001,17.830000,17.709999,17.790001,17.790001,762800
2015-04-23,17.860001,18.090000,17.850000,18.010000,18.010000,1057800
2015-04-24,17.990000,18.020000,17.920000,18.000000,18.000000,700600
2015-04-27,18.010000,18.070000,17.959999,18.000000,18.000000,833500
2015-04-28,18.020000,18.110001,17.980000,18.030001,18.030001,815500
2015-04-29,18.040001,18.250000,18.020000,18.150000,18.150000,1773900
2015-04-30,18.160000,18.290001,18.100000,18.290001,18.290001,1166500
2015-05-01,18.190001,18.270000,18.110001,18.270000,18.270000,2015400
2015-05-04,18.200001,18.260000,18.170000,18.260000,18.260000,2095200
2015-05-05,18.420000,18.490000,18.400000,18.410000,18.410000,1615300
2015-05-06,18.410000,18.680000,18.389999,18.410000,18.410000,2812400
2015-05-07,18.400000,18.400000,18.090000,18.120001,18.120001,1007500
2015-05-08,18.110001,18.260000,18.020000,18.219999,18.219999,1711600
2015-05-11,18.219999,18.240000,18.049999,18.139999,18.139999,1494300
2015-05-12,18.200001,18.440001,18.190001,18.330000,18.330000,1241200
2015-05-13,18.490000,18.500000,18.340000,18.350000,18.350000,1246900
2015-05-14,18.459999,18.500000,18.360001,18.459999,18.459999,2321900
2015-05-15,18.309999,18.459999,18.250000,18.450001,18.450001,2034900
2015-05-18,18.400000,18.430000,18.330000,18.400000,18.400000,1773500
2015-05-19,18.209999,18.209999,17.950001,18.010000,18.010000,1463300
2015-05-20,18.020000,18.049999,17.950001,17.969999,17.969999,2551100
2015-05-21,18.100000,18.250000,18.100000,18.190001,18.190001,974800
2015-05-22,18.040001,18.070000,17.959999,17.990000,17.990000,1452200
2015-05-26,17.780001,17.809999,17.580000,17.639999,17.639999,1366900
2015-05-27,17.490000,17.559999,17.370001,17.400000,17.400000,1392400
2015-05-28,17.379999,17.500000,17.299999,17.490000,17.490000,3380400
2015-05-29,17.480000,17.750000,17.459999,17.709999,17.709999,1347700
2015-06-01,17.680000,17.760000,17.600000,17.670000,17.670000,2013000
2015-06-02,17.780001,17.900000,17.719999,17.879999,17.879999,1085500
2015-06-03,17.799999,17.860001,17.620001,17.650000,17.650000,1091000
2015-06-04,17.549999,17.559999,17.420000,17.490000,17.490000,1296700
2015-06-05,17.320000,17.580000,17.280001,17.570000,17.570000,1161400
2015-06-08,17.549999,17.610001,17.520000,17.580000,17.580000,1449000
2015-06-09,17.840000,17.920000,17.809999,17.860001,17.860001,1221800
2015-06-10,18.049999,18.080000,17.900000,17.930000,17.930000,1223400
2015-06-11,17.879999,17.879999,17.730000,17.770000,17.770000,719100
2015-06-12,17.700001,17.740000,17.580000,17.590000,17.590000,3527800
2015-06-15,17.469999,17.559999,17.459999,17.510000,17.510000,1343800
2015-06-16,17.510000,17.590000,17.459999,17.559999,17.559999,577100
2015-06-17,17.750000,17.799999,17.450001,17.610001,17.610001,693900
2015-06-18,17.660000,17.690001,17.590000,17.610001,17.610001,1668500
2015-06-19,17.420000,17.490000,17.360001,17.450001,17.450001,1648600
2015-06-22,17.389999,17.549999,17.340000,17.510000,17.510000,1015200
2015-06-23,17.480000,17.730000,17.469999,17.719999,17.719999,630500
2015-06-24,17.660000,17.760000,17.570000,17.600000,17.600000,2268100
2015-06-25,17.559999,17.650000,17.520000,17.620001,17.620001,887300
2015-06-26,17.690001,17.760000,17.590000,17.700001,17.700001,550700
2015-06-29,17.639999,17.719999,17.600000,17.620001,17.620001,2299100
2015-06-30,17.670000,18.049999,17.650000,18.000000,18.000000,1582600
2015-07-01,17.860001,17.889999,17.709999,17.780001,17.780001,3885400
2015-07-02,17.799999,17.940001,17.740000,17.750000,17.750000,1855000
2015-07-06,17.320000,17.370001,17.139999,17.170000,17.170000,2304900
2015-07-07,17.059999,17.100000,16.719999,17.070000,17.070000,4409500
2015-07-08,17.030001,17.120001,16.900000,16.990000,16.990000,4364000
2015-07-09,17.200001,17.290001,17.110001,17.190001,17.190001,2278400
2015-07-10,17.230000,17.360001,17.160000,17.270000,17.270000,1117900
2015-07-13,17.240000,17.370001,17.110001,17.280001,17.280001,2425500
2015-07-14,17.170000,17.290001,17.139999,17.219999,17.219999,867200
2015-07-15,17.110001,17.150000,17.000000,17.020000,17.020000,914500
2015-07-16,17.070000,17.200001,16.930000,16.940001,16.940001,822400
2015-07-17,16.910000,16.910000,16.750000,16.850000,16.850000,938200
2015-07-20,16.670000,16.730000,16.580000,16.580000,16.580000,2006200
2015-07-21,16.629999,16.750000,16.600000,16.650000,16.650000,1044600
2015-07-22,16.510000,16.580000,16.410000,16.410000,16.410000,2034100
2015-07-23,16.469999,16.500000,16.270000,16.270000,16.270000,6627700
2015-07-24,16.200001,16.230000,16.070000,16.139999,16.139999,1264800
2015-07-27,15.950000,16.010000,15.820000,15.830000,15.830000,2407200
2015-07-28,15.920000,16.059999,15.880000,15.960000,15.960000,2157200
2015-07-29,15.930000,16.100000,15.920000,16.010000,16.010000,1239700
2015-07-30,16.000000,16.070000,15.920000,15.950000,15.950000,997500
2015-07-31,16.020000,16.020000,15.720000,15.730000,15.730000,1807500
2015-08-03,15.550000,15.650000,15.440000,15.470000,15.470000,2939000
2015-08-04,15.570000,15.620000,15.500000,15.560000,15.560000,2741300
2015-08-05,15.600000,15.670000,15.430000,15.500000,15.500000,1415200
2015-08-06,15.430000,15.490000,15.390000,15.490000,15.490000,1767100
2015-08-07,15.430000,15.500000,15.410000,15.430000,15.430000,1940400
2015-08-10,15.500000,15.820000,15.490000,15.760000,15.760000,2061600
2015-08-11,15.570000,15.580000,15.440000,15.550000,15.550000,1092400
2015-08-12,15.620000,15.700000,15.390000,15.500000,15.500000,1831800
2015-08-13,15.440000,15.450000,15.360000,15.430000,15.430000,1304400
2015-08-14,15.390000,15.470000,15.330000,15.330000,15.330000,876100
2015-08-17,15.370000,15.400000,15.270000,15.270000,15.270000,1824400
2015-08-18,15.170000,15.240000,15.110000,15.190000,15.190000,1641300
2015-08-19,15.210000,15.250000,14.970000,15.020000,15.020000,1718400
2015-08-20,15.160000,15.180000,15.020000,15.060000,15.060000,4386200
2015-08-21,14.960000,14.970000,14.770000,14.810000,14.810000,2750700
2015-08-24,14.410000,14.640000,14.350000,14.440000,14.440000,3776900
2015-08-25,14.680000,14.710000,14.470000,14.500000,14.500000,3132700
2015-08-26,14.460000,14.490000,14.330000,14.410000,14.410000,2180700
2015-08-27,14.600000,14.960000,14.550000,14.930000,14.930000,2094800
2015-08-28,15.000000,15.430000,14.990000,15.320000,15.320000,6212800
2015-08-31,15.150000,15.790000,15.000000,15.690000,15.690000,2227600
2015-09-01,15.490000,15.530000,15.140000,15.170000,15.170000,2494200
2015-09-02,15.360000,15.370000,14.980000,15.300000,15.300000,3646300
2015-09-03,15.330000,15.580000,15.300000,15.400000,15.400000,1687800
2015-09-04,15.310000,15.360000,15.190000,15.210000,15.210000,837700
2015-09-08,15.250000,15.360000,15.110000,15.320000,15.320000,1278600
2015-09-09,15.340000,15.360000,15.080000,15.120000,15.120000,1918600
2015-09-10,15.130000,15.300000,15.100000,15.250000,15.250000,2398200
2015-09-11,15.120000,15.300000,14.990000,15.230000,15.230000,1160200
2015-09-14,15.120000,15.160000,15.030000,15.040000,15.040000,804000
2015-09-15,15.050000,15.100000,15.000000,15.090000,15.090000,649200
2015-09-16,15.200000,15.400000,15.190000,15.340000,15.340000,1767000
2015-09-17,15.280000,15.320000,15.140000,15.240000,15.240000,1326700
2015-09-18,15.120000,15.150000,14.930000,15.010000,15.010000,1213700
2015-09-21,15.070000,15.190000,15.050000,15.180000,15.180000,883600
2015-09-22,14.970000,15.110000,14.920000,15.090000,15.090000,1021400
2015-09-23,15.190000,15.290000,14.960000,14.970000,14.970000,1423700
2015-09-24,14.920000,15.090000,14.920000,15.060000,15.060000,1711200
2015-09-25,15.110000,15.200000,15.050000,15.150000,15.150000,1286700
2015-09-28,15.000000,15.050000,14.900000,14.940000,14.940000,1424200
2015-09-29,14.970000,15.090000,14.950000,15.040000,15.040000,1407500
2015-09-30,15.070000,15.190000,15.050000,15.150000,15.150000,1466300
2015-10-01,15.320000,15.370000,15.020000,15.050000,15.050000,2237900
2015-10-02,14.920000,15.170000,14.910000,15.150000,15.150000,4613600
2015-10-05,15.310000,15.360000,15.280000,15.350000,15.350000,1696100
2015-10-06,15.430000,15.680000,15.430000,15.650000,15.650000,1805700
2015-10-07,15.790000,15.820000,15.550000,15.620000,15.620000,1087700
2015-10-08,15.570000,15.730000,15.540000,15.690000,15.690000,1294100
2015-10-09,15.800000,15.860000,15.690000,15.760000,15.760000,2042900
2015-10-12,15.790000,15.800000,15.460000,15.510000,15.510000,1072800
2015-10-13,15.390000,15.550000,15.370000,15.410000,15.410000,1571300
2015-10-14,15.440000,15.480000,15.340000,15.450000,15.450000,1495300
2015-10-15,15.360000,15.440000,15.250000,15.410000,15.410000,1624400
2015-10-16,15.450000,15.470000,15.280000,15.420000,15.420000,1383400
2015-10-19,15.230000,15.250000,15.110000,15.140000,15.140000,1160400
2015-10-20,15.110000,15.210000,15.080000,15.170000,15.170000,1591200
2015-10-21,15.060000,15.110000,14.960000,15.040000,15.040000,2500900
2015-10-22,15.150000,15.210000,15.040000,15.090000,15.090000,1326900
2015-10-23,15.020000,15.060000,14.950000,15.000000,15.000000,1363400
2015-10-26,14.990000,15.040000,14.950000,14.960000,14.960000,1226500
2015-10-27,14.890000,14.950000,14.860000,14.890000,14.890000,1547100
2015-10-28,14.930000,15.240000,14.930000,15.140000,15.140000,1690700
2015-10-29,15.080000,15.180000,15.040000,15.050000,15.050000,1501300
2015-10-30,15.080000,15.260000,15.050000,15.200000,15.200000,1446500
2015-11-02,15.100000,15.180000,15.070000,15.120000,15.120000,2485500
2015-11-03,15.220000,15.440000,15.200000,15.390000,15.390000,1988700
2015-11-04,15.380000,15.440000,15.110000,15.130000,15.130000,1556900
2015-11-05,15.040000,15.100000,14.960000,15.010000,15.010000,2661700
2015-11-06,14.910000,14.960000,14.840000,14.920000,14.920000,786300
2015-11-09,14.900000,14.920000,14.750000,14.790000,14.790000,2315500
2015-11-10,14.760000,14.850000,14.700000,14.760000,14.760000,1056000
2015-11-11,14.820000,14.830000,14.570000,14.610000,14.610000,1133900
2015-11-12,14.440000,14.550000,14.380000,14.400000,14.400000,1817300
2015-11-13,14.390000,14.390000,14.250000,14.290000,14.290000,1517400
2015-11-16,14.230000,14.370000,14.120000,14.360000,14.360000,1107800
2015-11-17,14.250000,14.280000,14.140000,14.140000,14.140000,1094800
2015-11-18,14.220000,14.240000,14.050000,14.200000,14.200000,1851000
2015-11-19,14.190000,14.270000,14.180000,14.200000,14.200000,2045800
2015-11-20,14.250000,14.360000,14.180000,14.180000,14.180000,2169500
2015-11-23,14.160000,14.370000,14.160000,14.290000,14.290000,3993600
2015-11-24,14.490000,14.590000,14.290000,14.520000,14.520000,1309000
2015-11-25,14.400000,14.530000,14.320000,14.500000,14.500000,1427300
2015-11-27,14.350000,14.400000,14.230000,14.280000,14.280000,1606800
2015-11-30,14.320000,14.400000,14.180000,14.190000,14.190000,2975400
2015-12-01,14.300000,14.410000,14.250000,14.350000,14.350000,2226200
2015-12-02,14.170000,14.290000,14.020000,14.050000,14.050000,2108800
2015-12-03,14.110000,14.350000,14.060000,14.210000,14.210000,2703400
2015-12-04,14.150000,14.270000,14.110000,14.190000,14.190000,2145000
2015-12-07,14.000000,14.040000,13.760000,13.780000,13.780000,2197000
2015-12-08,13.670000,13.830000,13.650000,13.710000,13.710000,3011100
2015-12-09,13.780000,13.920000,13.620000,13.720000,13.720000,2688000
2015-12-10,13.680000,13.770000,13.670000,13.670000,13.670000,2076600
2015-12-11,13.640000,13.710000,13.490000,13.530000,13.530000,4237900
2015-12-14,13.400000,13.550000,13.360000,13.440000,13.440000,2631700
2015-12-15,13.480000,13.600000,13.410000,13.410000,13.410000,2862800
2015-12-16,13.360000,13.420000,13.280000,13.350000,13.350000,3436900
2015-12-17,13.290000,13.300000,13.180000,13.210000,13.210000,8948500
2015-12-18,13.260000,13.440000,13.260000,13.270000,13.270000,2764200
2015-12-21,13.200000,13.300000,13.160000,13.210000,13.210000,4462300
2015-12-22,13.220000,13.260000,13.130000,13.150000,13.150000,3484300
2015-12-23,13.260000,13.420000,13.250000,13.390000,13.390000,5518100
2015-12-24,13.450000,13.470000,13.390000,13.390000,13.390000,1391700
2015-12-28,13.250000,13.300000,13.180000,13.200000,13.200000,2958900
2015-12-29,13.380000,13.460000,13.370000,13.420000,13.420000,5314700
2015-12-30,13.310000,13.340000,13.240000,13.290000,13.290000,3190200
2015-12-31,13.220000,13.490000,13.220000,13.360000,13.360000,2373200
2016-01-04,13.420000,13.510000,13.190000,13.260000,13.260000,2307600
2016-01-05,13.220000,13.250000,13.130000,13.130000,13.130000,1210000
2016-01-06,12.960000,13.060000,12.880000,12.920000,12.920000,2668600
2016-01-07,12.790000,12.980000,12.760000,12.860000,12.860000,10692400
2016-01-08,12.870000,12.880000,12.760000,12.800000,12.800000,2809600
2016-01-11,12.730000,12.920000,12.440000,12.450000,12.450000,2629100
2016-01-12,12.510000,12.540000,12.260000,12.370000,12.370000,2398200
2016-01-13,12.410000,12.470000,12.240000,12.300000,12.300000,2554200
2016-01-14,12.260000,12.360000,12.210000,12.330000,12.330000,1813100
2016-01-15,12.130000,12.190000,12.030000,12.070000,12.070000,1963500
2016-01-19,12.090000,12.120000,11.950000,11.970000,11.970000,3776800
2016-01-20,11.850000,11.910000,11.700000,11.880000,11.880000,2239200
2016-01-21,11.790000,12.110000,11.780000,12.040000,12.040000,2564100
2016-01-22,12.310000,12.410000,12.250000,12.400000,12.400000,1994500
2016-01-25,12.280000,12.370000,12.120000,12.130000,12.130000,1983100
2016-01-26,12.250000,12.530000,12.240000,12.370000,12.370000,2018600
2016-01-27,12.370000,12.610000,12.290000,12.520000,12.520000,1485200
2016-01-28,12.720000,12.770000,12.550000,12.660000,12.660000,1943200
2016-01-29,12.710000,12.820000,12.610000,12.780000,12.780000,2920600
2016-02-01,12.630000,12.660000,12.500000,12.540000,12.540000,1724600
2016-02-02,12.300000,12.400000,12.230000,12.320000,12.320000,5602500
2016-02-03,12.480000,12.640000,12.310000,12.630000,12.630000,3106600
2016-02-04,12.730000,12.790000,12.560000,12.610000,12.610000,2606400
2016-02-05,12.580000,12.630000,12.480000,12.530000,12.530000,1709200
2016-02-08,12.590000,12.620000,12.460000,12.470000,12.470000,1685700
2016-02-09,12.370000,12.430000,12.100000,12.150000,12.150000,2762900
2016-02-10,12.140000,12.280000,12.100000,12.170000,12.170000,3157100
2016-02-11,12.180000,12.340000,12.150000,12.320000,12.320000,1966700
2016-02-12,12.380000,12.570000,12.340000,12.500000,12.500000,3251400
2016-02-16,12.550000,12.550000,12.320000,12.360000,12.360000,3558900
2016-02-17,12.410000,12.670000,12.390000,12.620000,12.620000,1704300
2016-02-18,12.700000,12.710000,12.520000,12.550000,12.550000,2005500
2016-02-19,12.470000,12.480000,12.380000,12.440000,12.440000,835500
2016-02-22,12.570000,12.650000,12.570000,12.630000,12.630000,719000
2016-02-23,12.580000,12.580000,12.400000,12.460000,12.460000,1496800
2016-02-24,12.370000,12.670000,12.360000,12.620000,12.620000,2438900
2016-02-25,12.570000,12.700000,12.450000,12.610000,12.610000,3589400
2016-02-26,12.780000,12.810000,12.550000,12.590000,12.590000,1686500
2016-02-29,12.660000,12.760000,12.620000,12.750000,12.750000,1814000
2016-03-01,12.740000,12.800000,12.650000,12.760000,12.760000,2144600
2016-03-02,12.730000,12.870000,12.700000,12.830000,12.830000,4519700
2016-03-03,12.790000,12.920000,12.760000,12.900000,12.900000,1597000
2016-03-04,12.960000,13.160000,12.940000,13.150000,13.150000,2063900
2016-03-07,13.200000,13.430000,13.170000,13.390000,13.390000,2785500
2016-03-08,13.390000,13.390000,13.210000,13.210000,13.210000,2116400
2016-03-09,13.300000,13.430000,13.270000,13.410000,13.410000,2552700
2016-03-10,13.330000,13.430000,13.290000,13.390000,13.390000,2836700
2016-03-11,13.500000,13.530000,13.400000,13.440000,13.440000,1010900
2016-03-14,13.340000,13.350000,13.230000,13.320000,13.320000,1062700
2016-03-15,13.250000,13.250000,13.130000,13.210000,13.210000,1619200
2016-03-16,13.240000,13.450000,13.240000,13.440000,13.440000,2431000
2016-03-17,13.520000,13.620000,13.480000,13.590000,13.590000,1000400
2016-03-18,13.630000,13.680000,13.530000,13.580000,13.580000,1791100
2016-03-21,13.570000,13.640000,13.510000,13.620000,13.620000,9810500
2016-03-22,13.610000,13.730000,13.590000,13.720000,13.720000,1498800
2016-03-23,13.530000,13.560000,13.410000,13.430000,13.430000,3167100
2016-03-24,13.240000,13.410000,13.230000,13.350000,13.350000,1838700
2016-03-28,13.350000,13.400000,13.300000,13.390000,13.390000,1000300
2016-03-29,13.260000,13.370000,13.210000,13.360000,13.360000,2303600
2016-03-30,13.450000,13.510000,13.300000,13.310000,13.310000,1336100
2016-03-31,13.300000,13.410000,13.270000,13.290000,13.290000,3581700
2016-04-01,13.070000,13.130000,13.020000,13.060000,13.060000,1170800
2016-04-04,13.000000,13.080000,12.860000,12.880000,12.880000,4662300
2016-04-05,12.860000,12.870000,12.780000,12.850000,12.850000,1833000
2016-04-06,12.860000,13.040000,12.820000,12.990000,12.990000,4849500
2016-04-07,12.960000,12.990000,12.860000,12.950000,12.950000,1046200
2016-04-08,13.180000,13.300000,13.140000,13.260000,13.260000,1298800
2016-04-11,13.290000,13.390000,13.290000,13.360000,13.360000,1763800
2016-04-12,13.490000,13.700000,13.460000,13.650000,13.650000,2560000
2016-04-13,13.680000,13.770000,13.650000,13.720000,13.720000,1907900
2016-04-14,13.710000,13.720000,13.590000,13.610000,13.610000,1084600
2016-04-15,13.490000,13.610000,13.410000,13.560000,13.560000,879400
2016-04-18,13.410000,13.680000,13.380000,13.620000,13.620000,1204700
2016-04-19,13.760000,13.940000,13.740000,13.910000,13.910000,2227000
2016-04-20,13.850000,14.240000,13.820000,14.180000,14.180000,2408200
2016-04-21,14.260000,14.260000,14.040000,14.120000,14.120000,2702000
2016-04-22,14.150000,14.270000,14.030000,14.060000,14.060000,2134900
2016-04-25,14.080000,14.150000,14.010000,14.050000,14.050000,1574200
2016-04-26,14.110000,14.250000,14.070000,14.230000,14.230000,1528300
2016-04-27,14.320000,14.390000,14.130000,14.360000,14.360000,1682600
2016-04-28,14.370000,14.510000,14.350000,14.440000,14.440000,1944200
2016-04-29,14.600000,14.630000,14.480000,14.580000,14.580000,8719300
2016-05-02,14.520000,14.520000,14.350000,14.380000,14.380000,6749000
2016-05-03,14.290000,14.300000,14.090000,14.160000,14.160000,2723600
2016-05-04,14.240000,14.320000,14.060000,14.170000,14.170000,2021000
2016-05-05,14.340000,14.340000,13.960000,14.030000,14.030000,1184200
2016-05-06,14.000000,14.240000,13.970000,14.120000,14.120000,6854200
2016-05-09,13.960000,13.990000,13.800000,13.810000,13.810000,2163300
2016-05-10,13.920000,14.180000,13.920000,14.150000,14.150000,1420900
2016-05-11,14.210000,14.500000,14.160000,14.480000,14.480000,1851100
2016-05-12,14.530000,14.530000,14.320000,14.500000,14.500000,1270700
2016-05-13,14.410000,14.510000,14.380000,14.480000,14.480000,1550800
2016-05-16,14.620000,14.690000,14.580000,14.640000,14.640000,3273500
2016-05-17,14.630000,14.770000,14.620000,14.750000,14.750000,1425200
2016-05-18,14.650000,14.820000,14.620000,14.640000,14.640000,1987300
2016-05-19,14.490000,14.620000,14.400000,14.600000,14.600000,5004300
2016-05-20,14.680000,14.740000,14.570000,14.660000,14.660000,3424800
2016-05-23,14.490000,14.610000,14.480000,14.580000,14.580000,1290200
2016-05-24,14.530000,14.690000,14.530000,14.580000,14.580000,964200
2016-05-25,14.620000,14.760000,14.600000,14.750000,14.750000,1638500
2016-05-26,14.830000,14.850000,14.670000,14.740000,14.740000,1422400
2016-05-27,14.710000,14.830000,14.670000,14.800000,14.800000,1472500
2016-05-31,14.810000,14.890000,14.700000,14.710000,14.710000,10015000
2016-06-01,14.600000,14.860000,14.580000,14.860000,14.860000,3179200
2016-06-02,14.790000,14.990000,14.760000,14.890000,14.890000,6854400
2016-06-03,15.010000,15.020000,14.910000,14.990000,14.990000,2211300
2016-06-06,15.140000,15.200000,15.090000,15.170000,15.170000,2936900
2016-06-07,15.190000,15.320000,15.180000,15.320000,15.320000,1394200
2016-06-08,15.500000,15.590000,15.470000,15.580000,15.580000,2748200
2016-06-09,15.440000,15.570000,15.420000,15.550000,15.550000,3062200
2016-06-10,15.430000,15.480000,15.340000,15.360000,15.360000,2965700
2016-06-13,15.350000,15.460000,15.320000,15.360000,15.360000,1594600
2016-06-14,15.250000,15.310000,15.180000,15.260000,15.260000,1276500
2016-06-15,15.240000,15.320000,15.140000,15.180000,15.180000,1829800
2016-06-16,15.150000,15.150000,14.890000,14.920000,14.920000,1836500
2016-06-17,15.140000,15.290000,15.110000,15.270000,15.270000,2476300
2016-06-20,15.320000,15.460000,15.290000,15.410000,15.410000,1654100
2016-06-21,15.280000,15.330000,15.200000,15.290000,15.290000,1550500
2016-06-22,15.360000,15.400000,15.140000,15.200000,15.200000,2251100
2016-06-23,15.250000,15.330000,15.170000,15.320000,15.320000,1561500
2016-06-24,14.930000,15.060000,14.930000,15.010000,15.010000,1583000
2016-06-27,15.000000,15.000000,14.850000,14.980000,14.980000,2276900
2016-06-28,15.190000,15.220000,15.070000,15.220000,15.220000,1645800
2016-06-29,15.320000,15.520000,15.280000,15.440000,15.440000,1671000
2016-06-30,15.360000,15.440000,15.260000,15.350000,15.350000,2216100
2016-07-01,15.360000,15.550000,15.330000,15.540000,15.540000,3913400
2016-07-05,15.550000,15.550000,15.000000,15.100000,15.100000,4526800
2016-07-06,14.940000,15.170000,14.900000,15.160000,15.160000,2535300
2016-07-07,15.250000,15.270000,14.690000,14.730000,14.730000,3347900
2016-07-08,14.820000,14.900000,14.770000,14.880000,14.880000,1516800
2016-07-11,14.990000,15.000000,14.820000,14.820000,14.820000,1756600
2016-07-12,15.040000,15.140000,14.940000,15.100000,15.100000,1414900
2016-07-13,15.130000,15.200000,14.850000,14.910000,14.910000,2742600
2016-07-14,15.030000,15.060000,14.940000,14.970000,14.970000,1645000
2016-07-15,14.970000,15.030000,14.910000,14.930000,14.930000,1406800
2016-07-18,14.800000,14.890000,14.750000,14.860000,14.860000,1465100
2016-07-19,14.840000,14.860000,14.750000,14.770000,14.770000,854300
2016-07-20,14.610000,14.770000,14.580000,14.670000,14.670000,1813100
2016-07-21,14.720000,14.730000,14.590000,14.590000,14.590000,1309000
2016-07-22,14.550000,14.580000,14.450000,14.560000,14.560000,1728300
2016-07-25,14.460000,14.470000,14.380000,14.400000,14.400000,1248400
2016-07-26,14.370000,14.410000,14.320000,14.340000,14.340000,1451600
2016-07-27,14.360000,14.420000,14.150000,14.200000,14.200000,2628900
2016-07-28,14.220000,14.250000,14.130000,14.160000,14.160000,1235000
2016-07-29,14.140000,14.310000,14.100000,14.280000,14.280000,3017000
2016-08-01,14.160000,14.190000,14.000000,14.030000,14.030000,4540600
2016-08-02,14.180000,14.230000,13.960000,14.010000,14.010000,3700300
2016-08-03,14.040000,14.240000,13.980000,14.240000,14.240000,2559600
2016-08-04,14.140000,14.360000,14.090000,14.300000,14.300000,1414600
2016-08-05,14.300000,14.360000,14.230000,14.360000,14.360000,2201400
2016-08-08,14.450000,14.520000,14.430000,14.440000,14.440000,2999900
2016-08-09,14.490000,14.550000,14.390000,14.400000,14.400000,1660300
2016-08-10,14.480000,14.550000,14.230000,14.230000,14.230000,2213200
2016-08-11,14.320000,14.540000,14.290000,14.450000,14.450000,1959300
2016-08-12,14.490000,14.590000,14.460000,14.560000,14.560000,1653700
2016-08-15,14.650000,14.810000,14.640000,14.800000,14.800000,1281800
2016-08-16,14.820000,14.940000,14.770000,14.920000,14.920000,3543400
2016-08-17,14.910000,15.000000,14.820000,14.980000,14.980000,2806700
2016-08-18,15.050000,15.200000,15.040000,15.170000,15.170000,1961600
2016-08-19,15.110000,15.150000,15.040000,15.120000,15.120000,1215400
2016-08-22,14.990000,15.040000,14.940000,14.980000,14.980000,931700
2016-08-23,14.890000,15.090000,14.870000,15.040000,15.040000,934000
2016-08-24,14.970000,15.010000,14.820000,14.860000,14.860000,1471700
2016-08-25,14.880000,14.930000,14.840000,14.920000,14.920000,694600
2016-08-26,14.910000,15.090000,14.820000,14.870000,14.870000,808500
2016-08-29,14.820000,14.840000,14.780000,14.810000,14.810000,841700
2016-08-30,14.790000,14.820000,14.640000,14.670000,14.670000,1382300
2016-08-31,14.550000,14.600000,14.350000,14.390000,14.390000,13259500
2016-09-01,14.300000,14.330000,14.180000,14.230000,14.230000,2227000
2016-09-02,14.380000,14.440000,14.350000,14.390000,14.390000,3184400
2016-09-06,14.370000,14.510000,14.330000,14.490000,14.490000,1680200
2016-09-07,14.590000,14.630000,14.500000,14.620000,14.620000,1148500
2016-09-08,14.710000,14.930000,14.640000,14.880000,14.880000,2248200
2016-09-09,14.760000,14.780000,14.630000,14.650000,14.650000,2072800
2016-09-12,14.520000,14.720000,14.490000,14.650000,14.650000,2022200
2016-09-13,14.570000,14.630000,14.440000,14.460000,14.460000,1215500
2016-09-14,14.390000,14.510000,14.340000,14.350000,14.350000,1505100
2016-09-15,14.390000,14.490000,14.330000,14.420000,14.420000,1056200
2016-09-16,14.330000,14.460000,14.330000,14.440000,14.440000,977800
2016-09-19,14.480000,14.580000,14.430000,14.430000,14.430000,2235400
2016-09-20,14.370000,14.550000,14.360000,14.480000,14.480000,1666700
2016-09-21,14.600000,14.670000,14.550000,14.660000,14.660000,1457700
2016-09-22,14.800000,14.830000,14.710000,14.740000,14.740000,950600
2016-09-23,14.740000,14.790000,14.520000,14.570000,14.570000,1551600
2016-09-26,14.650000,14.790000,14.630000,14.670000,14.670000,1043900
2016-09-27,14.520000,14.600000,14.470000,14.530000,14.530000,1134000
2016-09-28,14.600000,14.940000,14.520000,14.870000,14.870000,2413800
2016-09-29,14.900000,15.040000,14.870000,14.960000,14.960000,1276900
2016-09-30,15.010000,15.040000,14.950000,15.010000,15.010000,1924000
2016-10-03,15.030000,15.170000,14.940000,15.140000,15.140000,4734500
2016-10-04,15.170000,15.180000,15.080000,15.100000,15.100000,1430600
2016-10-05,15.220000,15.240000,15.120000,15.190000,15.190000,4075500
2016-10-06,15.200000,15.230000,15.140000,15.220000,15.220000,1460000
2016-10-07,15.260000,15.290000,15.120000,15.180000,15.180000,1358400
2016-10-10,15.180000,15.410000,15.180000,15.350000,15.350000,1547900
2016-10-11,15.320000,15.340000,15.200000,15.260000,15.260000,2989800
2016-10-12,15.180000,15.220000,15.140000,15.150000,15.150000,3655800
2016-10-13,15.130000,15.280000,15.070000,15.250000,15.250000,1197700
2016-10-14,15.250000,15.280000,15.210000,15.260000,15.260000,1170100
2016-10-17,15.250000,15.280000,15.160000,15.280000,15.280000,2010500
2016-10-18,15.350000,15.360000,15.250000,15.310000,15.310000,786500
2016-10-19,15.330000,15.450000,15.330000,15.410000,15.410000,2279500
2016-10-20,15.260000,15.310000,15.190000,15.270000,15.270000,1212700
2016-10-21,15.250000,15.330000,15.210000,15.330000,15.330000,1034100
2016-10-24,15.330000,15.350000,15.190000,15.340000,15.340000,1957200
2016-10-25,15.330000,15.370000,15.260000,15.270000,15.270000,1372400
2016-10-26,15.160000,15.270000,15.130000,15.170000,15.170000,1892200
2016-10-27,15.250000,15.300000,15.180000,15.260000,15.260000,1052400
2016-10-28,15.200000,15.280000,15.130000,15.160000,15.160000,1447700
2016-10-31,15.100000,15.120000,14.940000,14.960000,14.960000,3300300
2016-11-01,15.170000,15.180000,14.960000,15.030000,15.030000,4391000
2016-11-02,14.910000,14.940000,14.300000,14.850000,14.850000,3264600
2016-11-03,14.850000,14.900000,14.760000,14.800000,14.800000,1884900
2016-11-04,14.670000,14.770000,14.620000,14.700000,14.700000,1725100
2016-11-07,14.750000,14.770000,14.640000,14.760000,14.760000,8293200
2016-11-08,14.650000,14.820000,14.650000,14.740000,14.740000,1254200
2016-11-09,14.790000,14.880000,14.680000,14.810000,14.810000,3111200
2016-11-10,14.740000,14.780000,14.680000,14.690000,14.690000,1535100
2016-11-11,14.580000,14.630000,14.400000,14.410000,14.410000,1701800
2016-11-14,14.400000,14.420000,14.270000,14.380000,14.380000,3068400
2016-11-15,14.490000,14.720000,14.490000,14.700000,14.700000,4373300
2016-11-16,14.630000,14.670000,14.510000,14.520000,14.520000,2185900
2016-11-17,14.660000,14.700000,14.530000,14.550000,14.550000,1104100
2016-11-18,14.630000,14.670000,14.520000,14.670000,14.670000,1603800
2016-11-21,14.890000,15.080000,14.890000,15.080000,15.080000,10376300
2016-11-22,15.100000,15.160000,14.970000,15.060000,15.060000,2566400
2016-11-23,15.000000,15.150000,14.980000,15.120000,15.120000,1863600
2016-11-25,15.070000,15.080000,14.940000,15.010000,15.010000,2590900
2016-11-28,15.090000,15.210000,15.060000,15.060000,15.060000,2835400
2016-11-29,14.840000,14.860000,14.710000,14.760000,14.760000,6781500
2016-11-30,15.030000,15.350000,15.030000,15.210000,15.210000,5383700
2016-12-01,15.460000,15.600000,15.420000,15.490000,15.490000,3661700
2016-12-02,15.520000,15.630000,15.520000,15.600000,15.600000,2360500
2016-12-05,15.730000,15.780000,15.670000,15.680000,15.680000,3254700
2016-12-06,15.630000,15.700000,15.590000,15.610000,15.610000,1398100
2016-12-07,15.600000,15.640000,15.490000,15.490000,15.490000,1842300
2016-12-08,15.500000,15.550000,15.400000,15.520000,15.520000,1693000
2016-12-09,15.600000,15.610000,15.530000,15.600000,15.600000,2500600
2016-12-12,15.820000,15.880000,15.680000,15.700000,15.700000,2873400
2016-12-13,15.800000,15.810000,15.660000,15.740000,15.740000,1381300
2016-12-14,15.700000,15.810000,15.570000,15.590000,15.590000,3129200
2016-12-15,15.460000,15.620000,15.430000,15.570000,15.570000,1580500
2016-12-16,15.610000,15.660000,15.550000,15.640000,15.640000,1148900
2016-12-19,15.620000,15.730000,15.520000,15.550000,15.550000,1565600
2016-12-20,15.620000,15.630000,15.540000,15.620000,15.620000,2103500
2016-12-21,15.630000,15.640000,15.500000,15.530000,15.530000,4886500
2016-12-22,15.520000,15.610000,15.510000,15.510000,15.510000,3033800
2016-12-23,15.500000,15.580000,15.500000,15.540000,15.540000,1265400
2016-12-27,15.660000,15.820000,15.660000,15.780000,15.780000,1303600
2016-12-28,15.780000,15.850000,15.770000,15.790000,15.790000,1603200
2016-12-29,15.810000,15.890000,15.780000,15.810000,15.810000,1198000
2016-12-30,15.820000,15.850000,15.790000,15.840000,15.840000,1623400
2017-01-03,15.970000,15.980000,15.590000,15.650000,15.650000,5935100
2017-01-04,15.660000,15.800000,15.610000,15.770000,15.770000,3281500
2017-01-05,15.840000,15.920000,15.700000,15.850000,15.850000,28475900
2017-01-06,15.850000,15.890000,15.750000,15.830000,15.830000,2781800
2017-01-09,15.710000,15.710000,15.560000,15.590000,15.590000,3365900
2017-01-10,15.660000,15.700000,15.510000,15.520000,15.520000,1915100
2017-01-11,15.630000,15.770000,15.490000,15.690000,15.690000,2711900
2017-01-12,15.830000,15.990000,15.830000,15.920000,15.920000,1752700
2017-01-13,15.850000,15.910000,15.820000,15.890000,15.890000,1241000
2017-01-17,16.059999,16.080000,15.880000,15.880000,15.880000,2168100
2017-01-18,15.800000,15.880000,15.670000,15.740000,15.740000,1570600
2017-01-19,15.770000,15.800000,15.690000,15.690000,15.690000,2495900
2017-01-20,15.890000,15.940000,15.710000,15.870000,15.870000,1780900
2017-01-23,15.770000,15.910000,15.760000,15.870000,15.870000,1390700
2017-01-24,15.950000,15.980000,15.890000,15.910000,15.910000,2219200
2017-01-25,15.800000,15.880000,15.770000,15.810000,15.810000,1724200
2017-01-26,15.890000,15.960000,15.870000,15.880000,15.880000,2201400
2017-01-27,15.900000,15.900000,15.690000,15.750000,15.750000,1835600
2017-01-30,15.680000,15.690000,15.620000,15.660000,15.660000,4275000
2017-01-31,15.780000,15.840000,15.700000,15.750000,15.750000,14620200
2017-02-01,15.800000,15.950000,15.760000,15.920000,15.920000,4732000
2017-02-02,15.970000,15.980000,15.870000,15.920000,15.920000,3617100
2017-02-03,15.850000,15.950000,15.820000,15.910000,15.910000,2433500
2017-02-06,15.910000,15.940000,15.780000,15.810000,15.810000,2332800
2017-02-07,15.690000,15.750000,15.670000,15.740000,15.740000,2026500
2017-02-08,15.750000,15.840000,15.690000,15.800000,15.800000,2314600
2017-02-09,15.910000,15.910000,15.820000,15.880000,15.880000,1669500
2017-02-10,16.010000,16.070000,15.980000,16.049999,16.049999,2768200
2017-02-13,15.900000,15.910000,15.840000,15.870000,15.870000,1122500
2017-02-14,15.970000,15.990000,15.840000,15.890000,15.890000,1679700
2017-02-15,15.870000,15.960000,15.840000,15.910000,15.910000,1350400
2017-02-16,15.910000,15.940000,15.790000,15.810000,15.810000,1300300
2017-02-17,15.710000,15.790000,15.690000,15.780000,15.780000,2265500
2017-02-21,15.850000,15.880000,15.730000,15.760000,15.760000,1838700
2017-02-22,15.690000,15.700000,15.650000,15.680000,15.680000,2480700
2017-02-23,15.830000,15.840000,15.690000,15.730000,15.730000,2209700
2017-02-24,15.740000,15.740000,15.660000,15.700000,15.700000,1371600
2017-02-27,15.720000,15.740000,15.650000,15.660000,15.660000,1914300
2017-02-28,15.630000,15.730000,15.600000,15.720000,15.720000,2321000
2017-03-01,15.810000,15.850000,15.750000,15.790000,15.790000,2324000
2017-03-02,15.620000,15.650000,15.530000,15.540000,15.540000,1381200
2017-03-03,15.560000,15.630000,15.530000,15.620000,15.620000,1805600
2017-03-06,15.690000,15.700000,15.600000,15.600000,15.600000,1297800
2017-03-07,15.640000,15.640000,15.520000,15.530000,15.530000,1468000
2017-03-08,15.480000,15.550000,15.150000,15.180000,15.180000,4012200
2017-03-09,15.130000,15.150000,14.930000,15.050000,15.050000,4657800
2017-03-10,15.050000,15.080000,14.870000,14.910000,14.910000,4163400
2017-03-13,14.920000,14.970000,14.860000,14.890000,14.890000,2701200
2017-03-14,14.780000,14.850000,14.700000,14.830000,14.830000,2946400
2017-03-15,14.920000,14.990000,14.870000,14.960000,14.960000,3442700
2017-03-16,15.020000,15.020000,14.930000,14.940000,14.940000,2088200
2017-03-17,15.000000,15.020000,14.940000,14.990000,14.990000,1161700
2017-03-20,14.960000,15.040000,14.940000,14.980000,14.980000,2166400
2017-03-21,15.020000,15.060000,14.890000,14.900000,14.900000,1882000
2017-03-22,14.860000,14.940000,14.770000,14.890000,14.890000,1921500
2017-03-23,14.870000,14.890000,14.820000,14.860000,14.860000,1511400
2017-03-24,14.900000,14.920000,14.860000,14.910000,14.910000,1372400
2017-03-27,14.810000,14.900000,14.770000,14.890000,14.890000,2124000
2017-03-28,14.960000,15.060000,14.950000,14.980000,14.980000,1713300
2017-03-29,15.040000,15.140000,15.020000,15.120000,15.120000,2553000
2017-03-30,15.160000,15.220000,15.120000,15.180000,15.180000,1325100
2017-03-31,15.150000,15.250000,15.140000,15.210000,15.210000,3000100
2017-04-03,15.250000,15.270000,15.140000,15.150000,15.150000,4604200
2017-04-04,15.230000,15.320000,15.150000,15.300000,15.300000,4604200
2017-04-05,15.470000,15.470000,15.310000,15.330000,15.330000,4604600
2017-04-06,15.400000,15.440000,15.370000,15.370000,15.370000,2856200
2017-04-07,15.420000,15.470000,15.390000,15.410000,15.410000,6227100
2017-04-10,15.480000,15.530000,15.450000,15.530000,15.530000,945800
2017-04-11,15.520000,15.590000,15.440000,15.560000,15.560000,1391600
2017-04-12,15.560000,15.640000,15.520000,15.560000,15.560000,1429300
2017-04-13,15.630000,15.650000,15.560000,15.610000,15.610000,2123000
2017-04-17,15.610000,15.630000,15.520000,15.520000,15.520000,1866000
2017-04-18,15.440000,15.490000,15.350000,15.460000,15.460000,1462800
2017-04-19,15.470000,15.480000,15.130000,15.190000,15.190000,2094500
2017-04-20,15.220000,15.240000,15.110000,15.130000,15.130000,1847400
2017-04-21,15.150000,15.150000,14.950000,14.980000,14.980000,1585100
2017-04-24,14.970000,14.970000,14.890000,14.930000,14.930000,1767600
2017-04-25,14.890000,15.010000,14.860000,15.000000,15.000000,1586400
2017-04-26,14.940000,15.050000,14.900000,14.920000,14.920000,5213800
2017-04-27,14.800000,14.840000,14.710000,14.840000,14.840000,919000
2017-04-28,14.870000,14.910000,14.780000,14.800000,14.800000,2065900
2017-05-01,14.810000,14.890000,14.800000,14.830000,14.830000,3598700
2017-05-02,14.820000,14.840000,14.630000,14.670000,14.670000,3162000
2017-05-03,14.700000,14.700000,14.570000,14.610000,14.610000,2146400
2017-05-04,14.460000,14.470000,14.240000,14.260000,14.260000,3352800
2017-05-05,14.320000,14.490000,14.310000,14.460000,14.460000,2436200
2017-05-08,14.390000,14.460000,14.320000,14.400000,14.400000,1583100
2017-05-09,14.430000,14.440000,14.310000,14.330000,14.330000,1473000
2017-05-10,14.430000,14.600000,14.420000,14.560000,14.560000,2232100
2017-05-11,14.630000,14.670000,14.590000,14.620000,14.620000,1312200
2017-05-12,14.660000,14.660000,14.580000,14.620000,14.620000,788700
2017-05-15,14.830000,14.830000,14.690000,14.700000,14.700000,893700
2017-05-16,14.770000,14.790000,14.720000,14.720000,14.720000,755700
2017-05-17,14.810000,14.880000,14.750000,14.820000,14.820000,3215000
2017-05-18,14.720000,14.850000,14.680000,14.780000,14.780000,841700
2017-05-19,14.960000,15.070000,14.950000,15.070000,15.070000,736600
2017-05-22,15.150000,15.210000,15.140000,15.170000,15.170000,1975400
2017-05-23,15.170000,15.180000,15.090000,15.120000,15.120000,1361200
2017-05-24,15.080000,15.140000,15.030000,15.090000,15.090000,1150900
2017-05-25,15.050000,15.100000,14.740000,14.760000,14.760000,1306400
2017-05-26,14.800000,14.890000,14.780000,14.870000,14.870000,1106200
2017-05-30,14.740000,14.800000,14.700000,14.750000,14.750000,2593000
2017-05-31,14.610000,14.640000,14.520000,14.590000,14.590000,2029200
2017-06-01,14.590000,14.610000,14.480000,14.490000,14.490000,2487200
2017-06-02,14.420000,14.470000,14.360000,14.420000,14.420000,1460600
2017-06-05,14.340000,14.370000,14.290000,14.340000,14.340000,1512700
2017-06-06,14.320000,14.450000,14.300000,14.440000,14.440000,1064100
2017-06-07,14.400000,14.440000,14.210000,14.240000,14.240000,1661800
2017-06-08,14.230000,14.310000,14.220000,14.240000,14.240000,1348100
2017-06-09,14.270000,14.360000,14.260000,14.320000,14.320000,1206000
2017-06-12,14.330000,14.370000,14.190000,14.190000,14.190000,2584100
2017-06-13,14.200000,14.270000,14.150000,14.250000,14.250000,890000
2017-06-14,14.230000,14.280000,14.000000,14.000000,14.000000,1195800
2017-06-15,13.980000,14.060000,13.960000,14.060000,14.060000,1042900
2017-06-16,14.130000,14.140000,14.080000,14.120000,14.120000,1476500
2017-06-19,14.110000,14.150000,14.000000,14.030000,14.030000,957700
2017-06-20,13.900000,13.920000,13.820000,13.890000,13.890000,1559400
2017-06-21,13.930000,13.980000,13.690000,13.740000,13.740000,2879400
2017-06-22,13.790000,13.860000,13.750000,13.760000,13.760000,1305700
2017-06-23,13.770000,13.840000,13.750000,13.820000,13.820000,1874600
2017-06-26,13.810000,13.870000,13.720000,13.850000,13.850000,1566600
2017-06-27,13.880000,14.060000,13.880000,14.010000,14.010000,1174900
2017-06-28,14.030000,14.110000,13.980000,14.100000,14.100000,2204700
2017-06-29,14.180000,14.270000,14.150000,14.160000,14.160000,893600
2017-06-30,14.240000,14.470000,14.240000,14.450000,14.450000,2047400
2017-07-03,14.510000,14.640000,14.500000,14.600000,14.600000,3013000
2017-07-05,14.600000,14.600000,14.320000,14.380000,14.380000,3157600
2017-07-06,14.420000,14.530000,14.370000,14.390000,14.390000,3055900
2017-07-07,14.290000,14.310000,14.150000,14.250000,14.250000,1950900
2017-07-10,14.230000,14.360000,14.230000,14.310000,14.310000,979500
2017-07-11,14.290000,14.470000,14.290000,14.450000,14.450000,759800
2017-07-12,14.530000,14.560000,14.370000,14.380000,14.380000,1252300
2017-07-13,14.380000,14.440000,14.330000,14.370000,14.370000,630000
2017-07-14,14.450000,14.530000,14.430000,14.530000,14.530000,759000
2017-07-17,14.520000,14.570000,14.460000,14.480000,14.480000,1141300
2017-07-18,14.610000,14.640000,14.510000,14.540000,14.540000,858900
2017-07-19,14.600000,14.700000,14.600000,14.670000,14.670000,825500
2017-07-20,14.740000,14.770000,14.630000,14.650000,14.650000,1132100
2017-07-21,14.640000,14.640000,14.420000,14.450000,14.450000,894800
2017-07-24,14.470000,14.490000,14.440000,14.480000,14.480000,606700
2017-07-25,14.630000,14.670000,14.570000,14.640000,14.640000,722700
2017-07-26,14.650000,14.790000,14.630000,14.780000,14.780000,2389200
2017-07-27,14.850000,14.900000,14.810000,14.870000,14.870000,1062200
2017-07-28,14.900000,14.970000,14.900000,14.950000,14.950000,834800
2017-07-31,14.930000,15.050000,14.900000,15.040000,15.040000,1109900
2017-08-01,14.950000,14.950000,14.750000,14.870000,14.870000,1041300
2017-08-02,14.900000,14.930000,14.800000,14.900000,14.900000,2126600
2017-08-03,14.920000,14.930000,14.780000,14.790000,14.790000,2187100
2017-08-04,14.810000,14.850000,14.740000,14.820000,14.820000,1113200
2017-08-07,14.800000,14.900000,14.760000,14.850000,14.850000,989400
2017-08-08,14.820000,14.930000,14.820000,14.860000,14.860000,1113800
2017-08-09,14.920000,14.970000,14.880000,14.960000,14.960000,1013700
2017-08-10,15.030000,15.030000,14.730000,14.730000,14.730000,2661400
2017-08-11,14.710000,14.830000,14.690000,14.780000,14.780000,1543200
2017-08-14,14.760000,14.820000,14.630000,14.650000,14.650000,1346600
2017-08-15,14.540000,14.590000,14.500000,14.580000,14.580000,839800
2017-08-16,14.640000,14.690000,14.540000,14.540000,14.540000,2787700
2017-08-17,14.490000,14.600000,14.480000,14.580000,14.580000,1782100
2017-08-18,14.630000,14.850000,14.580000,14.840000,14.840000,1266300
2017-08-21,14.740000,14.760000,14.630000,14.660000,14.660000,953900
2017-08-22,14.690000,14.750000,14.670000,14.700000,14.700000,1118900
2017-08-23,14.720000,14.830000,14.690000,14.830000,14.830000,1042000
2017-08-24,14.810000,14.860000,14.750000,14.820000,14.820000,766200
2017-08-25,14.830000,14.850000,14.730000,14.790000,14.790000,565000
2017-08-28,14.840000,14.860000,14.730000,14.800000,14.800000,925900
2017-08-29,14.760000,14.830000,14.760000,14.800000,14.800000,712000
2017-08-30,14.780000,14.820000,14.660000,14.690000,14.690000,831900
2017-08-31,14.790000,15.100000,14.790000,15.100000,15.100000,2587700
