Date,Open,High,Low,Close,Adj Close,Volume
2018-01-02,109.260002,109.309998,108.970001,109.169998,107.708527,8850900
2018-01-03,109.250000,109.250000,109.089996,109.180000,107.718391,2441700
2018-01-04,109.019997,109.150002,108.970001,109.110001,107.649338,2945400
2018-01-05,109.150002,109.150002,108.949997,109.040001,107.580284,4322900
2018-01-08,109.110001,109.110001,108.949997,109.010002,107.550667,3394500
2018-01-09,108.910004,108.910004,108.690002,108.709999,107.254692,2301300
2018-01-10,108.480003,108.720001,108.430000,108.709999,107.254692,4194300
2018-01-11,108.660004,108.860001,108.610001,108.760002,107.304016,3470400
2018-01-12,108.639999,108.830002,108.629997,108.739998,107.284286,3605900
2018-01-16,108.870003,108.980003,108.720001,108.769997,107.313873,6794400
2018-01-17,108.730003,108.839996,108.620003,108.650002,107.195496,3112000
2018-01-18,108.430000,108.529999,108.349998,108.410004,106.958717,2896500
2018-01-19,108.400002,108.400002,108.139999,108.180000,106.731781,2933800
2018-01-22,108.220001,108.300003,108.110001,108.139999,106.692314,3983200
2018-01-23,108.330002,108.440002,108.290001,108.400002,106.948837,4775600
2018-01-24,108.250000,108.320000,108.150002,108.290001,106.840302,2362300
2018-01-25,108.260002,108.570000,108.190002,108.570000,107.116570,9851600
2018-01-26,108.510002,108.510002,108.269997,108.370003,106.919250,3808000
2018-01-29,108.139999,108.250000,108.019997,108.180000,106.731781,3974900
2018-01-30,108.120003,108.120003,107.919998,108.010002,106.564056,3659500
2018-01-31,108.199997,108.209999,107.879997,108.099998,106.652863,8066500
2018-02-01,107.750000,107.830002,107.480003,107.519997,106.318626,9678700
2018-02-02,107.250000,107.349998,107.099998,107.199997,106.002205,4779300
2018-02-05,107.129997,107.809998,107.000000,107.629997,106.427414,5991700
2018-02-06,107.459999,107.559998,107.279999,107.320000,106.120872,6031400
2018-02-07,107.430000,107.440002,107.000000,107.080002,105.883560,4115600
2018-02-08,106.839996,107.139999,106.769997,106.900002,105.705566,4761600
2018-02-09,106.720001,107.070000,106.699997,106.760002,105.567123,5926100
2018-02-12,106.739998,106.949997,106.660004,106.790001,105.596794,5421400
2018-02-13,106.790001,106.910004,106.699997,106.820000,105.626450,4256200
2018-02-14,106.570000,106.660004,106.400002,106.459999,105.270477,4317000
2018-02-15,106.559998,106.730003,106.529999,106.589996,105.399017,2878900
2018-02-16,106.849998,106.879997,106.709999,106.800003,105.606682,3648900
2018-02-20,106.690002,106.709999,106.550003,106.690002,105.497910,2907400
2018-02-21,106.769997,106.800003,106.260002,106.349998,105.161705,3223800
2018-02-22,106.489998,106.559998,106.360001,106.360001,105.171593,2485400
2018-02-23,106.610001,106.760002,106.570000,106.629997,105.438583,2398100
2018-02-26,106.879997,106.949997,106.690002,106.709999,105.517677,4617300
2018-02-27,106.779999,106.820000,106.379997,106.480003,105.290253,5704700
2018-02-28,106.589996,106.769997,106.540001,106.769997,105.577011,9614100
2018-03-01,106.540001,106.720001,106.379997,106.629997,105.671158,7335500
2018-03-02,106.470001,106.550003,106.360001,106.459999,105.502686,3717300
2018-03-05,106.599998,106.650002,106.279999,106.400002,105.443230,3307200
2018-03-06,106.449997,106.559998,106.379997,106.419998,105.463043,1932100
2018-03-07,106.510002,106.550003,106.370003,106.400002,105.443230,3448700
2018-03-08,106.419998,106.629997,106.419998,106.570000,105.611710,2396200
2018-03-09,106.430000,106.459999,106.300003,106.370003,105.413498,3669400
2018-03-12,106.430000,106.489998,106.370003,106.430000,105.472954,4149500
2018-03-13,106.589996,106.599998,106.449997,106.570000,105.611710,2727500
2018-03-14,106.540001,106.849998,106.519997,106.750000,105.790092,3126400
2018-03-15,106.730003,106.809998,106.639999,106.760002,105.800003,3045500
2018-03-16,106.620003,106.720001,106.599998,106.699997,105.740524,2552700
2018-03-19,106.559998,106.739998,106.529999,106.589996,105.631516,2263200
2018-03-20,106.440002,106.510002,106.400002,106.419998,105.463043,3000700
2018-03-21,106.320000,106.480003,106.080002,106.410004,105.453140,2994400
2018-03-22,106.669998,106.800003,106.489998,106.610001,105.651344,3334400
2018-03-23,106.459999,106.699997,106.459999,106.610001,105.651344,3618700
2018-03-26,106.639999,106.709999,106.470001,106.570000,105.611710,4546500
2018-03-27,106.629997,106.949997,106.610001,106.879997,105.918907,4537700
2018-03-28,107.050003,107.099998,106.879997,106.940002,105.978378,5617200
2018-03-29,106.949997,107.260002,106.949997,107.250000,106.285583,8300000
2018-04-02,106.900002,107.040001,106.820000,106.900002,106.179314,7280300
2018-04-03,106.820000,106.870003,106.739998,106.779999,106.060127,9916100
2018-04-04,106.900002,106.930000,106.790001,106.820000,106.099854,6200900
2018-04-05,106.709999,106.760002,106.629997,106.669998,105.950859,2592500
2018-04-06,106.889999,106.980003,106.790001,106.910004,106.189247,2814800
2018-04-09,106.830002,107.000000,106.779999,107.000000,106.278641,3746500
2018-04-10,106.949997,106.989998,106.830002,106.919998,106.199173,2941900
2018-04-11,107.050003,107.059998,106.930000,107.010002,106.288582,8598800
2018-04-12,106.910004,106.930000,106.760002,106.769997,106.050186,3899000
2018-04-13,106.690002,106.839996,106.669998,106.800003,106.079994,2764800
2018-04-16,106.639999,106.839996,106.610001,106.820000,106.099854,3860800
2018-04-17,106.809998,106.889999,106.750000,106.849998,106.129646,2363000
2018-04-18,106.739998,106.750000,106.540001,106.550003,105.831680,2231700
2018-04-19,106.339996,106.389999,106.239998,106.290001,105.573425,10985100
2018-04-20,106.150002,106.239998,106.000000,106.000000,105.285385,2766000
2018-04-23,105.980003,106.010002,105.900002,105.949997,105.235710,2620800
2018-04-24,105.849998,105.919998,105.779999,105.809998,105.096664,3442300
2018-04-25,105.720001,105.739998,105.599998,105.669998,104.957603,3785000
2018-04-26,105.830002,105.900002,105.760002,105.849998,105.136391,4870300
2018-04-27,105.959999,106.040001,105.940002,105.980003,105.265526,3806400
2018-04-30,106.010002,106.120003,105.989998,106.000000,105.285385,4692600
2018-05-01,105.730003,105.790001,105.599998,105.669998,105.195778,3027000
2018-05-02,105.699997,105.779999,105.620003,105.669998,105.195778,2560800
2018-05-03,105.820000,105.949997,105.779999,105.790001,105.315247,4499200
2018-05-04,105.919998,105.930000,105.709999,105.860001,105.384926,2317100
2018-05-07,105.879997,105.879997,105.769997,105.809998,105.335152,1533400
2018-05-08,105.660004,105.750000,105.599998,105.690002,105.215691,2591700
2018-05-09,105.559998,105.639999,105.519997,105.570000,105.096230,2507500
2018-05-10,105.750000,105.820000,105.690002,105.809998,105.335152,2096700
2018-05-11,105.900002,105.900002,105.760002,105.860001,105.384926,2034100
2018-05-14,105.790001,105.849998,105.739998,105.760002,105.285385,2183500
2018-05-15,105.489998,105.489998,105.190002,105.290001,104.817490,2166400
2018-05-16,105.360001,105.419998,105.150002,105.169998,104.698021,2477500
2018-05-17,105.190002,105.209999,105.000000,105.029999,104.558655,2789000
2018-05-18,105.160004,105.320000,105.160004,105.300003,104.827438,2151100
2018-05-21,105.279999,105.370003,105.239998,105.309998,104.837395,1952200
2018-05-22,105.320000,105.370003,105.279999,105.309998,104.837395,2246400
2018-05-23,105.500000,105.650002,105.480003,105.599998,105.126099,5969200
2018-05-24,105.820000,105.959999,105.820000,105.889999,105.414795,2865000
2018-05-25,106.099998,106.180000,106.029999,106.120003,105.643768,2508100
2018-05-29,106.370003,107.000000,106.320000,106.820000,106.340622,3494200
2018-05-30,106.540001,106.669998,106.400002,106.550003,106.071838,3158200
2018-05-31,106.519997,106.669998,106.389999,106.459999,105.982239,5157400
2018-06-01,105.949997,106.129997,105.910004,106.080002,105.851517,5584700
2018-06-04,106.000000,106.010002,105.790001,105.830002,105.602058,4271600
2018-06-05,105.989998,106.040001,105.849998,105.910004,105.681885,1848300
2018-06-06,105.709999,105.750000,105.580002,105.669998,105.442398,2705800
2018-06-07,105.639999,106.120003,105.620003,105.900002,105.671906,2724800
2018-06-08,105.750000,105.900002,105.739998,105.750000,105.522224,3416800
2018-06-11,105.650002,105.739998,105.570000,105.639999,105.412468,4330800
2018-06-12,105.559998,105.690002,105.559998,105.669998,105.442398,3546500
2018-06-13,105.680000,105.750000,105.379997,105.570000,105.342613,3627200
2018-06-14,105.750000,105.860001,105.690002,105.839996,105.612030,4689600
2018-06-15,106.010002,106.089996,105.860001,105.879997,105.651947,2361800
2018-06-18,105.930000,105.930000,105.800003,105.900002,105.671906,2359300
2018-06-19,106.050003,106.110001,105.980003,106.010002,105.781670,2184200
2018-06-20,106.059998,106.059998,105.790001,105.809998,105.582100,2403700
2018-06-21,105.879997,105.959999,105.809998,105.839996,105.612030,2895500
2018-06-22,105.820000,105.940002,105.800003,105.940002,105.711823,1846000
2018-06-25,105.949997,106.040001,105.860001,105.879997,105.651947,5522900
2018-06-26,105.989998,106.050003,105.940002,106.050003,105.821587,2665200
2018-06-27,106.230003,106.309998,106.160004,106.239998,106.011169,3001300
2018-06-28,106.279999,106.290001,106.160004,106.230003,106.001198,1798900
2018-06-29,106.300003,106.419998,106.250000,106.320000,106.091003,7117300
