Date,Open,High,Low,Close,Adj Close,Volume
2018-01-02,57.750000,58.040001,57.650002,58.000000,57.527096,10928300
2018-01-03,58.259998,58.570000,58.259998,58.509998,58.032936,10018500
2018-01-04,58.650002,58.840000,58.599998,58.750000,58.270981,18278000
2018-01-05,58.900002,59.279999,58.830002,59.250000,58.766907,10641100
2018-01-08,59.150002,59.369999,59.119999,59.290001,58.806580,6772400
2018-01-09,59.230000,59.240002,58.919998,59.160000,58.677639,6992300
2018-01-10,58.770000,58.919998,58.590000,58.779999,58.300735,10425200
2018-01-11,58.799999,59.220001,58.790001,59.200001,58.717312,9236800
2018-01-12,59.310001,59.810001,59.169998,59.790001,59.302502,18083900
2018-01-16,59.950001,60.110001,59.410000,59.470001,58.985111,14788000
2018-01-17,59.919998,60.400002,59.849998,60.240002,59.748837,8146900
2018-01-18,60.200001,60.360001,60.119999,60.299999,59.808342,7748000
2018-01-19,60.619999,60.790001,60.410000,60.790001,60.294350,8302200
2018-01-22,60.759998,61.139999,60.650002,61.139999,60.641495,7466100
2018-01-23,61.110001,61.380001,61.009998,61.380001,60.879539,9265800
2018-01-24,61.790001,62.049999,61.509998,61.930000,61.425053,9304300
2018-01-25,61.990002,62.410000,61.709999,61.849998,61.345703,8603200
2018-01-26,62.310001,62.700001,62.160000,62.689999,62.178856,7486900
2018-01-29,61.990002,62.029999,61.700001,61.790001,61.286198,17281500
2018-01-30,61.189999,61.220001,60.759998,60.980000,60.482800,13953300
2018-01-31,61.759998,61.810001,61.009998,61.439999,60.939049,14212100
2018-02-01,60.930000,61.259998,60.639999,60.680000,60.185246,18531400
2018-02-02,60.060001,60.099998,59.099998,59.180000,58.697475,15979500
2018-02-05,59.029999,59.590000,57.099998,57.189999,56.723701,16766900
2018-02-06,57.130001,59.340000,56.910000,58.860001,58.380085,27082300
2018-02-07,57.860001,58.450001,57.080002,57.099998,56.634434,25078600
2018-02-08,57.500000,57.549999,55.180000,55.189999,54.740005,19034400
2018-02-09,55.990002,56.529999,54.480000,56.160000,55.702099,21551600
2018-02-12,56.840000,57.360001,56.400002,56.959999,56.495575,15709100
2018-02-13,57.049999,57.520000,56.970001,57.389999,56.922070,14955100
2018-02-14,57.240002,58.910000,57.240002,58.770000,58.290821,13114300
2018-02-15,59.770000,60.080002,59.070000,59.869999,59.381847,18457100
2018-02-16,59.450001,60.169998,59.410000,59.650002,59.163647,19409900
2018-02-20,58.660000,59.090000,58.590000,58.880001,58.399921,14659500
2018-02-21,59.439999,60.029999,58.790001,58.799999,58.320572,17131800
2018-02-22,59.040001,59.430000,58.830002,58.959999,58.479267,11557200
2018-02-23,59.619999,59.939999,59.340000,59.910000,59.421524,8382700
2018-02-26,60.060001,60.439999,59.730000,60.430000,59.937283,10756900
2018-02-27,59.709999,59.730000,58.730000,58.730000,58.251144,13324100
2018-02-28,58.900002,58.900002,57.930000,57.930000,57.457668,17000300
2018-03-01,58.419998,58.790001,57.389999,57.919998,57.447746,22908700
2018-03-02,57.270000,58.250000,56.950001,58.139999,57.665955,10218300
2018-03-05,57.580002,58.279999,57.450001,58.150002,57.675877,10568100
2018-03-06,59.130001,59.130001,58.540001,58.700001,58.221390,8366200
2018-03-07,58.299999,58.759998,58.060001,58.740002,58.261066,9017900
2018-03-08,58.820000,58.869999,58.459999,58.730000,58.251144,5667400
2018-03-09,59.209999,59.950001,59.150002,59.950001,59.461197,10154100
2018-03-12,59.990002,60.169998,59.779999,60.080002,59.590141,17480500
2018-03-13,60.360001,60.410000,59.349998,59.529999,59.044621,14153700
2018-03-14,59.990002,60.080002,59.340000,59.689999,59.203316,7646300
2018-03-15,59.869999,59.959999,59.290001,59.470001,58.985111,9813800
2018-03-16,59.340000,59.509998,59.250000,59.340000,58.856171,6394300
2018-03-19,58.980000,59.070000,58.360001,58.700001,58.221390,8880300
2018-03-20,59.220001,59.480000,59.080002,59.340000,58.856171,7552000
2018-03-21,59.250000,59.930000,59.119999,59.669998,59.183479,12298900
2018-03-22,58.369999,58.630001,57.669998,57.730000,57.259296,14442800
2018-03-23,57.830002,57.939999,56.599998,56.619999,56.158348,17601900
2018-03-26,58.090000,58.520000,57.430000,58.470001,57.993267,9419100
2018-03-27,58.520000,58.610001,57.299999,57.450001,56.981583,11514300
2018-03-28,57.340000,57.509998,56.840000,57.189999,56.723701,11167000
2018-03-29,57.590000,58.560001,57.529999,58.400002,57.923836,17221000
2018-04-02,58.029999,58.250000,56.840000,57.299999,56.832806,13803300
2018-04-03,57.910000,57.990002,57.450001,57.900002,57.427914,18556300
2018-04-04,56.419998,57.990002,56.340000,57.939999,57.467587,10273000
2018-04-05,58.189999,58.380001,57.889999,58.080002,57.606445,9347100
2018-04-06,57.560001,57.950001,56.700001,57.020000,56.555088,14237100
2018-04-09,57.389999,57.720001,57.099998,57.099998,56.634434,10452800
2018-04-10,57.880001,58.259998,57.680000,58.160000,57.685791,11733100
2018-04-11,57.840000,58.340000,57.830002,58.200001,57.725468,11029900
2018-04-12,58.080002,58.330002,57.990002,58.180000,57.705631,6112100
2018-04-13,58.160000,58.189999,57.509998,57.660000,57.189869,8808400
2018-04-16,57.599998,57.779999,57.419998,57.740002,57.269218,6694500
2018-04-17,57.490002,57.980000,57.450001,57.820000,57.348564,11346200
2018-04-18,58.000000,58.430000,57.950001,58.270000,57.794895,11527100
2018-04-19,58.419998,58.430000,57.759998,57.939999,57.467587,8927000
2018-04-20,57.610001,57.650002,57.029999,57.279999,56.812965,8532900
2018-04-23,57.130001,57.270000,56.680000,56.830002,56.366638,7397400
2018-04-24,57.230000,57.340000,56.290001,56.520000,56.059166,9928700
2018-04-25,56.130001,56.259998,55.799999,56.180000,55.721935,11782200
2018-04-26,56.430000,56.910000,56.380001,56.860001,56.396393,8102800
2018-04-27,57.200001,57.299999,56.889999,57.220001,56.753460,5545100
2018-04-30,57.450001,57.490002,56.840000,56.849998,56.386471,13419500
2018-05-01,56.540001,56.639999,55.869999,56.590000,56.128593,7589900
2018-05-02,56.680000,56.730000,56.090000,56.130001,55.672344,13243600
2018-05-03,56.110001,56.180000,55.279999,55.959999,55.503731,15754700
2018-05-04,55.520000,56.419998,55.410000,56.240002,55.781448,9324100
2018-05-07,55.799999,56.150002,55.750000,55.919998,55.464054,5610100
2018-05-08,56.009998,56.230000,55.680000,56.169998,55.712017,9927300
2018-05-09,56.369999,56.419998,55.990002,56.259998,55.801281,12256100
2018-05-10,56.880001,57.610001,56.849998,57.450001,56.981583,10564600
2018-05-11,57.619999,57.709999,57.200001,57.320000,56.852642,6683800
2018-05-14,57.619999,57.759998,57.320000,57.380001,56.912155,6184700
2018-05-15,56.369999,56.500000,56.049999,56.220001,55.761612,15062200
2018-05-16,56.759998,57.150002,56.750000,57.070000,56.604679,10669900
2018-05-17,56.509998,56.669998,56.099998,56.299999,55.840958,13832500
2018-05-18,55.849998,55.970001,55.700001,55.869999,55.414463,7048600
2018-05-21,56.270000,56.340000,55.919998,56.110001,55.652508,9754400
2018-05-22,56.400002,56.599998,56.230000,56.310001,55.850880,9289700
2018-05-23,55.700001,56.330002,55.650002,56.299999,55.840958,10784100
2018-05-24,56.020000,56.110001,55.419998,56.020000,55.563240,7578300
2018-05-25,56.029999,56.320000,55.950001,56.209999,55.751690,7315100
2018-05-29,55.490002,55.610001,54.700001,54.959999,54.511883,17385100
2018-05-30,55.029999,55.529999,54.810001,55.470001,55.017727,13511900
2018-05-31,55.430000,55.709999,55.180000,55.529999,55.077236,16800700
2018-06-01,55.919998,56.220001,55.810001,56.139999,55.682262,11744700
2018-06-04,56.619999,56.840000,56.590000,56.730000,56.267452,5540900
2018-06-05,56.560001,56.639999,56.270000,56.320000,55.860794,6494700
2018-06-06,56.770000,57.130001,56.669998,57.130001,56.664192,6160700
2018-06-07,56.970001,56.990002,55.959999,56.310001,55.850880,12929900
2018-06-08,56.049999,56.450001,55.820000,56.259998,55.801281,12685800
2018-06-11,56.330002,56.439999,56.150002,56.200001,55.741776,5890800
2018-06-12,56.220001,56.290001,55.880001,56.099998,55.642586,8298100
2018-06-13,56.150002,56.259998,55.400002,55.700001,55.245850,8528700
2018-06-14,55.709999,55.820000,55.270000,55.330002,54.878868,7557400
2018-06-15,54.820000,54.980000,54.529999,54.959999,54.511883,12974100
2018-06-18,54.180000,54.270000,53.820000,54.209999,53.767998,10913600
2018-06-19,52.799999,53.270000,52.599998,53.130001,53.130001,20080400
2018-06-20,53.639999,53.700001,53.320000,53.380001,53.380001,10387600
2018-06-21,53.040001,53.060001,52.610001,52.650002,52.650002,17284700
2018-06-22,53.400002,53.410000,53.009998,53.160000,53.160000,7278600
2018-06-25,52.680000,52.750000,52.000000,52.509998,52.509998,16015500
2018-06-26,52.540001,52.610001,52.160000,52.270000,52.270000,14755800
2018-06-27,52.130001,52.279999,51.160000,51.250000,51.250000,21666700
2018-06-28,51.200001,51.669998,51.049999,51.630001,51.630001,20346800
2018-06-29,52.320000,52.540001,52.259998,52.509998,52.509998,16120800
